[{"date": "2014-12-25", "province": null, "link": "http://www.cenews.com.cn/xwzx2013/bwdt//201412/t20141225_785610.html", "city": null, "title": "2014\u5e74\u4e3b\u8981\u6c61\u67d3\u7269\u603b\u91cf\u51cf\u6392\u6838\u67e5\u6838\u7b97\u89c6\u9891\u4f1a\u8bae\u53ec\u5f00"},
{"date": "2014-12-18", "province": null, "link": "http://www.cenews.com.cn/xwzx2013/bwdt//201412/t20141218_785286.html", "city": null, "title": "\u5f3a\u5316\u76d1\u7763\u7ba1\u7406 \u63a8\u8fdb\u4fdd\u62a4\u5de5\u4f5c"},
{"date": "2014-12-04", "province": null, "link": "http://www.cenews.com.cn/xwzx2013/bwdt//201412/t20141204_784552.html", "city": null, "title": "\u674e\u5e72\u6770\u4f1a\u89c1\u745e\u5178\u73af\u5883\u5927\u4f7f"},
{"date": "2014-12-01", "province": null, "link": "http://www.cenews.com.cn/xwzx2013/bwdt//201412/t20141201_784360.html", "city": null, "title": "\u674e\u5e72\u6770\u51fa\u5e2d\u73af\u5883\u516c\u7ea6\u5c65\u7ea6\u521b\u65b0\u4e0e\u53d1\u5c55\u7814\u8ba8\u4f1a"},
{"date": "2014-11-27", "province": null, "link": "http://www.cenews.com.cn/xwzx2013/bwdt//201411/t20141127_784203.html", "city": null, "title": "\u7fdf\u9752\u5e94\u9080\u8bbf\u95ee\u82ac\u5170 \u63a8\u8fdb\u73af\u4fdd\u5408\u4f5c\u52a1\u5b9e\u53d1\u5c55"},
{"date": "2014-11-26", "province": null, "link": "http://www.cenews.com.cn/xwzx2013/bwdt//201411/t20141126_784143.html", "city": null, "title": "\u674e\u5e72\u6770\u51fa\u5e2d\u201c\u7eaf\u51c0\u82ac\u5170\u00b7\u6e05\u6d01\u65e5\u201d\u6d3b\u52a8\u5e76\u81f4\u8f9e"},
{"date": "2014-11-26", "province": null, "link": "http://www.cenews.com.cn/xwzx2013/bwdt//201411/t20141126_784142.html", "city": null, "title": "\u5927\u529b\u63a8\u8fdb\u6838\u5b89\u5168\u6587\u5316\u5efa\u8bbe\u5168\u9762\u63d0\u5347\u6838\u4e0e\u8f90\u5c04\u5b89\u5168\u7ba1\u7406\u6c34\u5e73"},
{"date": "2014-11-26", "province": null, "link": "http://www.cenews.com.cn/xwzx2013/bwdt//201411/t20141126_784141.html", "city": null, "title": "\u73af\u5883\u4fdd\u62a4\u90e8\u53ec\u5f00\u5168\u56fd\u89c4\u5212\u8d22\u52a1\u5de5\u4f5c\u4f1a"},
{"date": "2014-11-24", "province": null, "link": "http://www.cenews.com.cn/xwzx2013/bwdt//201411/t20141124_784012.html", "city": null, "title": "\n\u3000\u3000\u7fdf\u9752\u7387\u56e2\u51fa\u5e2d\u300a\u5173\u4e8e\u6d88\u8017\u81ed\u6c27\u5c42\u7269\u8d28\u7684\n\u3000\u3000\u8499\u7279\u5229\u5c14\u8bae\u5b9a\u4e66\u300b\u7b2c\u4e8c\u5341\u516d\u6b21..."},
{"date": "2014-11-17", "province": null, "link": "http://www.cenews.com.cn/xwzx2013/bwdt//201411/t20141117_783671.html", "city": null, "title": "\u5468\u751f\u8d24\u4f1a\u89c1\u97e9\u56fd\u73af\u5883\u90e8\u90e8\u957f"},
{"date": "2014-11-14", "province": "\u56db\u5ddd", "link": "http://www.cenews.com.cn/xwzx2013/bwdt//201411/t20141114_783561.html", "city": null, "title": "\u4e07\u672c\u592a\u8d74\u56db\u5ddd\u7518\u5b5c\u5dde\u8c03\u7814"},
{"date": "2014-11-07", "province": null, "link": "http://www.cenews.com.cn/xwzx2013/bwdt//201411/t20141107_783432.html", "city": null, "title": "\u73af\u5883\u4fdd\u62a4\u90e8\u4e3e\u529e\u73af\u5883\u6559\u80b2\u7acb\u6cd5\u7814\u8ba8\u4f1a"},
{"date": "2014-11-06", "province": null, "link": "http://www.cenews.com.cn/xwzx2013/bwdt//201411/t20141106_783324.html", "city": null, "title": "\u5404\u5730\u8981\u4e25\u8083\u67e5\u5904\u8fdd\u6cd5\u6392\u6c61\u884c\u4e3a"},
{"date": "2014-11-06", "province": null, "link": "http://www.cenews.com.cn/xwzx2013/bwdt//201411/t20141106_783323.html", "city": null, "title": "\u674e\u5e72\u6770\u51fa\u5e2d\u5168\u56fd\u6838\u5b89\u5168\u8bbe\u5907\u7ecf\u9a8c\u4ea4\u6d41\u66a8\u6838\u5b89\u5168\u6587\u5316\u5ba3\u8d2f\u63a8\u8fdb\u4f1a"},
{"date": "2014-11-03", "province": null, "link": "http://www.cenews.com.cn/xwzx2013/bwdt//201411/t20141103_783099.html", "city": null, "title": "\u79d1\u5b66\u7814\u7a76\u8981\u91cd\u5fc3\u4e0b\u6c89\u63a5\u5730\u6c14"},
{"date": "2014-11-03", "province": null, "link": "http://www.cenews.com.cn/xwzx2013/bwdt//201411/t20141103_783096.html", "city": null, "title": "\u7fdf\u9752\u51fa\u5e2d\u7b2c13\u6b21\u4e1c\u76df\u2014\u4e2d\u65e5\u97e9\u73af\u5883"},
{"date": "2014-10-31", "province": null, "link": "http://www.cenews.com.cn/xwzx2013/bwdt//201410/t20141031_783011.html", "city": null, "title": "\u5468\u751f\u8d24\u4f1a\u89c1\u610f\u5927\u5229\u73af\u5883\u3001\u9886\u571f\u4e0e\u6d77\u6d0b\u90e8\u90e8\u957f"},
{"date": "2014-10-30", "province": null, "link": "http://www.cenews.com.cn/xwzx2013/bwdt//201410/t20141030_782944.html", "city": null, "title": "\u73af\u5883\u4fdd\u62a4\u90e8\u53ec\u5f00\u515a\u7ec4\u6269\u5927\u4f1a\u8bae"},
{"date": "2014-10-29", "province": null, "link": "http://www.cenews.com.cn/xwzx2013/bwdt//201410/t20141029_782866.html", "city": null, "title": "\u674e\u5e72\u6770\u4f1a\u89c1\u82f1\u56fd\u6838\u5b89\u5168\u76d1\u7ba1\u529e\u516c\u5ba4\u9996\u5e2d\u6267\u884c\u5b98"},
{"date": "2014-10-28", "province": null, "link": "http://www.cenews.com.cn/xwzx2013/bwdt//201410/t20141028_782789.html", "city": null, "title": "\u7fdf\u9752\u4f1a\u89c1\u65b0\u52a0\u5761\u73af\u5883\u53ca\u6c34\u6e90\u90e8\u7b2c\u4e8c\u90e8\u957f"},
{"date": "2014-10-28", "province": null, "link": "http://www.cenews.com.cn/xwzx2013/bwdt//201410/t20141028_782787.html", "city": null, "title": "\u56fd\u9645\u539f\u5b50\u80fd\u673a\u6784\u7b2c\u4e09\u5c4aTSO\u56fd\u9645\u4f1a\u8bae\u53ec\u5f00"},
{"date": "2014-10-27", "province": null, "link": "http://www.cenews.com.cn/xwzx2013/bwdt//201410/t20141027_782710.html", "city": null, "title": "\u786e\u4fdd\u6838\u4e0e\u8f90\u5c04\u548c\u5e72\u90e8\u961f\u4f0d\u4e24\u4e2a\u5b89\u5168"},
{"date": "2014-10-23", "province": null, "link": "http://www.cenews.com.cn/xwzx2013/bwdt//201410/t20141023_782567.html", "city": null, "title": "\u63a8\u52a8\u8d23\u4efb\u843d\u5b9e \u63a8\u8fdb\u4ece\u4e25\u6cbb\u515a"},
{"date": "2014-10-22", "province": null, "link": "http://www.cenews.com.cn/xwzx2013/bwdt//201410/t20141022_782485.html", "city": null, "title": "\u674e\u5e72\u6770\u4f1a\u89c1\u4f0a\u6717\u9a7b\u534e\u5927\u4f7f"},
{"date": "2014-10-21", "province": null, "link": "http://www.cenews.com.cn/xwzx2013/bwdt//201410/t20141021_782414.html", "city": null, "title": "\u674e\u5e72\u6770\u4f1a\u89c1\u8054\u5408\u56fd\u9a7b\u534e\u534f\u8c03\u4ee3\u8868\u517c\u8054\u5408\u56fd\u5f00\u53d1\u8ba1\u5212\u7f72\u9a7b\u534e\u4ee3\u8868"},
{"date": "2014-10-17", "province": null, "link": "http://www.cenews.com.cn/xwzx2013/bwdt//201410/t20141017_782236.html", "city": null, "title": "\u674e\u5e72\u6770\u4f1a\u89c1\u65b0\u52a0\u5761\u9a7b\u534e\u5927\u4f7f\u7f57\u5bb6\u826f"},
{"date": "2014-10-17", "province": null, "link": "http://www.cenews.com.cn/xwzx2013/bwdt//201410/t20141017_782235.html", "city": null, "title": "\u751f\u7269\u591a\u6837\u6027\u516c\u7ea6\u7b2c\u5341\u4e8c\u6b21\u7f14\u7ea6\u65b9\u5927\u4f1a\u53ec\u5f00"},
{"date": "2014-10-13", "province": null, "link": "http://www.cenews.com.cn/xwzx2013/bwdt//201410/t20141013_781907.html", "city": null, "title": "\u674e\u5e72\u6770\u4f1a\u89c1\u610f\u5927\u5229\u5ba2\u4eba"},
{"date": "2014-10-10", "province": null, "link": "http://www.cenews.com.cn/xwzx2013/bwdt//201410/t20141010_781834.html", "city": null, "title": "\u6301\u4e4b\u4ee5\u6052\u63a8\u8fdb\u7164\u7535\u884c\u4e1a\u5347\u7ea7\u6539\u9020"},
{"date": "2014-10-10", "province": null, "link": "http://www.cenews.com.cn/xwzx2013/bwdt//201410/t20141010_781831.html", "city": null, "title": "\u5468\u751f\u8d24\u4e0e\u5fb7\u56fd\u8054\u90a6\u73af\u5883\u3001\u81ea\u7136\u4fdd\u62a4\u3001 \u5efa\u7b51\u548c\u6838\u5b89\u5168\u90e8\u90e8\u957f\u4e3e\u884c\u5de5\u4f5c\u4f1a\u8c08"},
{"date": "2014-10-09", "province": null, "link": "http://www.cenews.com.cn/xwzx2013/bwdt//201410/t20141009_781752.html", "city": null, "title": "\u7fdf\u9752\u4f1a\u89c1\u7f8e\u56fd\u5eb7\u5b81\u516c\u53f8\u5168\u7403\u6267\u884c\u526f\u603b\u88c1"},
{"date": "2014-09-29", "province": null, "link": "http://www.cenews.com.cn/xwzx2013/bwdt//201409/t20140929_781582.html", "city": null, "title": "\u73af\u5883\u4fdd\u62a4\u90e8\u4e3e\u529e\u516c\u4f17\u53c2\u4e0e\u7814\u8ba8\u73ed"},
{"date": "2014-09-26", "province": null, "link": "http://www.cenews.com.cn/xwzx2013/bwdt//201409/t20140926_781503.html", "city": null, "title": "\u7a81\u51fa\u9879\u76ee\u521b\u65b0\u6027\u5b9e\u7528\u6027"},
{"date": "2014-09-24", "province": null, "link": "http://www.cenews.com.cn/xwzx2013/bwdt//201409/t20140924_781338.html", "city": null, "title": "\u73af\u5883\u6807\u5fd7\u8981\u4e3a\u751f\u6001\u6587\u660e\u5efa\u8bbe\u8d21\u732e\u529b\u91cf"},
{"date": "2014-09-18", "province": null, "link": "http://www.cenews.com.cn/xwzx2013/bwdt//201409/t20140918_781072.html", "city": null, "title": "\u4e2d\u56fd\u2014\u4e1c\u76df\u73af\u5883\u5408\u4f5c\u8bba\u575b\u4e3e\u529e"},
{"date": "2014-09-17", "province": null, "link": "http://www.cenews.com.cn/xwzx2013/bwdt//201409/t20140917_780994.html", "city": null, "title": "\u5207\u5b9e\u5f3a\u5316\u73af\u5883\u6267\u6cd5\u76d1\u7ba1\u5168\u9762\u63a8\u8fdb\u5927\u6c14\u6c61\u67d3\u9632\u6cbb"},
{"date": "2014-09-17", "province": null, "link": "http://www.cenews.com.cn/xwzx2013/bwdt//201409/t20140917_780993.html", "city": null, "title": "\u6df1\u5316\u751f\u6001\u73af\u5883\u4fdd\u62a4\u9886\u57df\u6539\u9769"},
{"date": "2014-09-11", "province": "\u5409\u6797", "link": "http://www.cenews.com.cn/xwzx2013/bwdt//201409/t20140911_780673.html", "city": "\u767d\u5c71", "title": "2014\u4e2d\u56fd\u957f\u767d\u5c71\u56fd\u9645\u751f\u6001\u8bba\u575b\u5f00\u5e55"},
{"date": "2014-09-10", "province": null, "link": "http://www.cenews.com.cn/xwzx2013/bwdt//201409/t20140910_780584.html", "city": null, "title": "\u5468\u751f\u8d24\u4f1a\u89c1\u4e39\u9ea6\u73af\u5883\u5927\u81e3"},
{"date": "2014-09-05", "province": null, "link": "http://www.cenews.com.cn/xwzx2013/bwdt//201409/t20140905_780412.html", "city": null, "title": "\u674e\u5e72\u6770\u4f1a\u89c1\u8054\u5408\u56fd\u5de5\u4e1a\u53d1\u5c55\u7ec4\u7ec7\u603b\u5e72\u4e8b"},
{"date": "2014-09-02", "province": null, "link": "http://www.cenews.com.cn/xwzx2013/bwdt//201409/t20140902_780193.html", "city": null, "title": "\u5468\u751f\u8d24\u4f1a\u89c1\u67ec\u57d4\u5be8\u73af\u5883\u90e8\u5927\u81e3"},
{"date": "2014-08-29", "province": null, "link": "http://www.cenews.com.cn/xwzx2013/bwdt//201408/t20140829_780053.html", "city": null, "title": "\u624e\u5b9e\u63a8\u8fdb\u53cd\u8150\u5021\u5ec9\u5efa\u8bbe"},
{"date": "2014-08-29", "province": null, "link": "http://www.cenews.com.cn/xwzx2013/bwdt//201408/t20140829_780052.html", "city": null, "title": "\u201c\u4e24\u59d4\u201d\u7b2c\u516b\u6b21\u5168\u4f53\u59d4\u5458\u4f1a\u8bae\u53ec\u5f00"},
{"date": "2014-08-08", "province": null, "link": "http://www.cenews.com.cn/xwzx2013/bwdt//201408/t20140808_778926.html", "city": null, "title": "\u79ef\u6781\u6709\u6548\u5e94\u5bf9\u9707\u540e\u73af\u5883\u95ee\u9898"},
{"date": "2014-07-28", "province": null, "link": "http://www.cenews.com.cn/xwzx2013/bwdt//201407/t20140728_778182.html", "city": null, "title": "\u5468\u82f1\u96c6\u4f53\u7ea6\u8c08\u90e8\u5206\u90e8\u5c5e\u5355\u4f4d\u9886\u5bfc\u73ed\u5b50\u6210\u5458"},
{"date": "2014-07-21", "province": null, "link": "http://www.cenews.com.cn/xwzx2013/bwdt//201407/t20140721_777846.html", "city": null, "title": "\u52a0\u5f3a\u533a\u57df\u534f\u8c03\u914d\u5408 \u843d\u5b9e\u9752\u5965\u73af\u5883\u7ba1\u63a7\u63aa\u65bd"},
{"date": "2014-07-16", "province": null, "link": "http://www.cenews.com.cn/xwzx2013/bwdt//201407/t20140716_777628.html", "city": null, "title": "\u674e\u5e72\u6770\u4f1a\u89c1\u671d\u9c9c\u56fd\u571f\u4e0e\u73af\u5883\u4fdd\u62a4\u90e8\u526f\u90e8\u957f"},
{"date": "2014-07-10", "province": null, "link": "http://www.cenews.com.cn/xwzx2013/bwdt//201407/t20140710_777324.html", "city": null, "title": "\u5434\u6653\u9752\u51fa\u5e2d\u7b2c\u516d\u8f6e\u4e2d\u7f8e\u6218\u7565\u4e0e\u7ecf\u6d4e\u5bf9\u8bdd"},
{"date": "2014-06-27", "province": null, "link": "http://www.cenews.com.cn/xwzx2013/bwdt//201406/t20140627_776630.html", "city": null, "title": "\u6218\u7565\u73af\u8bc4\u6210\u679c\u91cd\u5728\u5e94\u7528\u843d\u5b9e"},
{"date": "2014-06-20", "province": null, "link": "http://www.cenews.com.cn/xwzx2013/bwdt//201406/t20140620_776272.html", "city": null, "title": "\u674e\u5e72\u6770\u51fa\u5e2d\u4e2d\u4fc4\u6838\u5b89\u5168\u76d1\u7ba1\u5de5\u4f5c\u4f1a\u8bae"},
{"date": "2014-06-19", "province": null, "link": "http://www.cenews.com.cn/xwzx2013/bwdt//201406/t20140619_776177.html", "city": null, "title": "\u674e\u5e72\u6770\u4f1a\u89c1\u7f8e\u56fd\u6cf0\u62c9\u80fd\u6e90\u516c\u53f8\u8463\u4e8b\u957f\u6bd4\u5c14\u00b7\u76d6\u8328"},
{"date": "2014-06-17", "province": null, "link": "http://www.cenews.com.cn/xwzx2013/bwdt//201406/t20140617_775998.html", "city": null, "title": "\u7eff\u8272\u8f6c\u578b\u9700\u8981\u5148\u8fdb\u5f15\u9886"},
{"date": "2014-06-05", "province": "\u4e0a\u6d77", "link": "http://www.cenews.com.cn/xwzx2013/bwdt//201406/t20140605_775327.html", "city": null, "title": "\u4e2d\u56fd\u2014\u2014\u4e0a\u6d77\u5408\u4f5c\u7ec4\u7ec7\u73af\u4fdd\u5408\u4f5c\u9ad8\u5c42\u7814\u8ba8\u4f1a\u4e3e\u884c"},
{"date": "2014-05-28", "province": null, "link": "http://www.cenews.com.cn/xwzx2013/bwdt//201405/t20140528_774889.html", "city": null, "title": "\u4ee5\u7763\u67e5\u4fc3\u5730\u65b9\u5c65\u884c\u73af\u4fdd\u804c\u8d23"},
{"date": "2014-05-23", "province": null, "link": "http://www.cenews.com.cn/xwzx2013/bwdt//201405/t20140523_774612.html", "city": null, "title": "\u6784\u5efa\u79d1\u5b66\u5408\u7406\u7684\u57ce\u9547\u5316\u5e03\u5c40"},
{"date": "2014-05-19", "province": null, "link": "http://www.cenews.com.cn/xwzx2013/bwdt//201405/t20140519_774328.html", "city": null, "title": "\u4e2d\u56fd\u2014\u4e1c\u76df\u73af\u4fdd\u4ea7\u4e1a\u5408\u4f5c\u7814\u8ba8\u4f1a\u4e3e\u884c"},
{"date": "2014-05-19", "province": null, "link": "http://www.cenews.com.cn/xwzx2013/bwdt//201405/t20140519_774323.html", "city": null, "title": "\u674e\u5e72\u6770\u4f1a\u89c1\u8499\u53e4\u56fd\u73af\u5883\u4e0e\u7eff\u8272\u53d1\u5c55\u90e8\u526f\u90e8\u957f"},
{"date": "2014-05-12", "province": null, "link": "http://www.cenews.com.cn/xwzx2013/bwdt//201405/t20140512_773964.html", "city": null, "title": "\u56fd\u5408\u4f1a2014\u5e74\u5706\u684c\u4f1a\u8bae\u4e3e\u884c"},
{"date": "2014-05-09", "province": null, "link": "http://www.cenews.com.cn/xwzx2013/bwdt//201405/t20140509_773878.html", "city": null, "title": "APEC\u7eff\u8272\u53d1\u5c55\u9ad8\u5c42\u5706\u684c\u4f1a\u4e3e\u884c"},
{"date": "2014-05-06", "province": null, "link": "http://www.cenews.com.cn/xwzx2013/bwdt//201405/t20140506_773625.html", "city": null, "title": "\u674e\u5e72\u6770\u51fa\u5e2d\u6838\u4e8b\u6545\u5e94\u6025\u6551\u63f4\u5de5\u4f5c\u4f1a"},
{"date": "2014-05-04", "province": null, "link": "http://www.cenews.com.cn/xwzx2013/bwdt//201405/t20140504_773511.html", "city": null, "title": "\u5927\u529b\u63a8\u8fdb\u751f\u6001\u6587\u660e \u52aa\u529b\u5efa\u8bbe\u7f8e\u4e3d\u4e2d\u56fd"},
{"date": "2014-05-04", "province": null, "link": "http://www.cenews.com.cn/xwzx2013/bwdt//201405/t20140504_773512.html", "city": null, "title": "\u904f\u5236\u6d89\u996e\u7528\u6c34\u7a81\u53d1\u4e8b\u4ef6\u9ad8\u53d1\u6001\u52bf"},
{"date": "2014-04-28", "province": null, "link": "http://www.cenews.com.cn/xwzx2013/bwdt//201404/t20140428_773300.html", "city": null, "title": "\u751f\u6001\u73af\u5883\u53d8\u5316\u529b\u4e89\u5341\u5e74\u4e00\u8bc4\u4f30"},
{"date": "2014-04-17", "province": null, "link": "http://www.cenews.com.cn/xwzx2013/bwdt//201404/t20140417_772927.html", "city": null, "title": "\u674e\u5e72\u6770\u4f1a\u89c1\u7f8e\u56fd\u6838\u7ba1\u5236\u59d4\u5458\u4f1a\u526f\u4e3b\u5e2d"},
{"date": "2014-04-15", "province": null, "link": "http://www.cenews.com.cn/xwzx2013/bwdt//201404/t20140415_772826.html", "city": null, "title": "\u51c6\u786e\u628a\u63e1\u6c34\u4e13\u9879\u6218\u7565\u5b9a\u4f4d"},
{"date": "2014-04-11", "province": null, "link": "http://www.cenews.com.cn/xwzx2013/bwdt//201404/t20140411_772656.html", "city": null, "title": "\u5468\u82f1\u5bf9\u8d2f\u5f7b\u843d\u5b9e\u4e2d\u592e\u516b\u9879\u89c4\u5b9a\u7cbe\u795e\u60c5\u51b5\u62bd\u67e5\u8fdb\u884c\u52a8\u5458"},
{"date": "2014-04-04", "province": null, "link": "http://www.cenews.com.cn/xwzx2013/bwdt//201404/t20140404_772401.html", "city": null, "title": "\u5218\u534e\u51fa\u5e2d\u300a\u6838\u5b89\u5168\u516c\u7ea6\u300b\u7f14\u7ea6\u65b9\u7b2c\u516d\u6b21\u5ba1\u8bae\u4f1a\u8bae"},
{"date": "2014-03-28", "province": null, "link": "http://www.cenews.com.cn/xwzx2013/bwdt//201403/t20140328_772086.html", "city": null, "title": "\u674e\u5e72\u6770\u4f1a\u89c1\u5fb7\u56fd\u8054\u90a6\u73af\u5883\u3001\u81ea\u7136\u4fdd\u62a4\u3001\u5efa\u8bbe\u4e0e\u6838\u5b89\u5168\u90e8\u56fd\u52a1\u79d8\u4e66"},
{"date": "2014-03-27", "province": null, "link": "http://www.cenews.com.cn/xwzx2013/bwdt//201403/t20140327_772028.html", "city": null, "title": "\u7fdf\u9752\u51fa\u5e2d\u4e2d\u56fd\u5c65\u884c\u65af\u5fb7\u54e5\u5c14\u6469\u516c\u7ea6\u56fd\u5bb6\u5b9e\u65bd\u8ba1\u5212\u66f4\u65b0\u542f\u52a8\u4f1a"},
{"date": "2014-03-27", "province": null, "link": "http://www.cenews.com.cn/xwzx2013/bwdt//201403/t20140327_772027.html", "city": null, "title": "\u674e\u5e72\u6770\u4f1a\u89c1\u7f8e\u56fd\u524d\u56fd\u9632\u90e8\u957f\u3001\u79d1\u6069\u96c6\u56e2\u603b\u88c1"},
{"date": "2014-03-25", "province": null, "link": "http://www.cenews.com.cn/xwzx2013/bwdt//201403/t20140325_771879.html", "city": null, "title": "\u5434\u6653\u9752\u4f1a\u89c1\u7f8e\u56fd\u9676\u6c0f\u5316\u5b66\u516c\u53f8\u8463\u4e8b\u957f\u517c\u9996\u5e2d\u6267\u884c\u5b98"},
{"date": "2014-03-12", "province": null, "link": "http://www.cenews.com.cn/xwzx2013/bwdt//201403/t20140312_770974.html", "city": null, "title": "\u674e\u5e72\u6770\u4f1a\u89c1\u97e9\u56fd\u73af\u5883\u90e8\u526f\u90e8\u957f"},
{"date": "2014-03-10", "province": null, "link": "http://www.cenews.com.cn/xwzx2013/bwdt//201403/t20140310_765697.html", "city": null, "title": "\u52a0\u5f3a\u73af\u5883\u4fdd\u62a4 \u5efa\u8bbe\u7f8e\u4e3d\u4e2d\u56fd"},
{"date": "2014-03-04", "province": null, "link": "http://www.cenews.com.cn/xwzx2013/bwdt//201403/t20140304_765321.html", "city": null, "title": "\u52a0\u5feb\u571f\u58e4\u73af\u5883\u4fdd\u62a4\u6cd5\u8d77\u8349\u5de5\u4f5c\u8fdb\u7a0b"},
{"date": "2014-02-27", "province": null, "link": "http://www.cenews.com.cn/xwzx2013/bwdt//201402/t20140227_765161.html", "city": null, "title": "\u674e\u5e72\u6770\u4f1a\u89c1\u7ecf\u5408\u7ec4\u7ec7\u6838\u80fd\u7f72\u7f72\u957f"},
{"date": "2014-02-26", "province": null, "link": "http://www.cenews.com.cn/xwzx2013/bwdt//201402/t20140226_765120.html", "city": null, "title": "\u5468\u751f\u8d24\u4f1a\u89c1\u7f8e\u56fd\u524d\u8d22\u653f\u90e8\u957f"},
{"date": "2014-02-14", "province": null, "link": "http://www.cenews.com.cn/xwzx2013/bwdt//201402/t20140214_764634.html", "city": null, "title": "\u5468\u751f\u8d24\u4e3b\u6301\u53ec\u5f00\u73af\u5883\u4fdd\u62a4\u90e8\u5e38\u52a1\u4f1a\u8bae"},
{"date": "2014-02-11", "province": null, "link": "http://www.cenews.com.cn/xwzx2013/bwdt//201402/t20140211_764444.html", "city": null, "title": "\u674e\u5e72\u6770\u4f1a\u89c1\u5fb7\u56fd\u8054\u90a6\u73af\u5883\u3001\u81ea\u7136 \u4fdd\u62a4\u3001\u5efa\u8bbe\u4e0e\u6838\u5b89\u5168\u90e8\u56fd\u52a1\u79d8\u4e66"},
{"date": "2014-01-27", "province": null, "link": "http://www.cenews.com.cn/xwzx2013/bwdt//201401/t20140127_764202.html", "city": null, "title": "\u73af\u5883\u4fdd\u62a4\u90e8\u4e3e\u884c2014\u5e74\u6625\u8282\u56e2\u62dc\u4f1a\u66a8\u8868\u5f70\u5927\u4f1a"},
{"date": "2014-01-24", "province": null, "link": "http://www.cenews.com.cn/xwzx2013/bwdt//201401/t20140124_764129.html", "city": null, "title": "\u73af\u5883\u4fdd\u62a4\u90e8\u4e3e\u884c2014\u5e74\u6625\u8282\u5728\u4eac\u79bb\u9000\u4f11\u8001\u5e72\u90e8\u56e2\u62dc\u4f1a"},
{"date": "2014-01-23", "province": null, "link": "http://www.cenews.com.cn/xwzx2013/bwdt//201401/t20140123_764060.html", "city": null, "title": "\u5434\u6653\u9752\u6170\u95ee\u5728\u4eac\u73af\u4fdd\u7cfb\u7edf\u9662\u58eb\u4ee3\u8868\u548c\u76d1\u6d4b\u603b\u7ad9\u4e00\u7ebf\u804c\u5de5"},
{"date": "2014-01-14", "province": null, "link": "http://www.cenews.com.cn/xwzx2013/bwdt//201401/t20140114_763555.html", "city": null, "title": "\u5468\u751f\u8d24\u4f1a\u89c1\u745e\u5178\u524d\u9996\u76f8"},
{"date": "2014-01-13", "province": null, "link": "http://www.cenews.com.cn/xwzx2013/bwdt//201401/t20140113_763514.html", "city": null, "title": "\u6df1\u5165\u8d2f\u5f7b\u515a\u7684\u5341\u516b\u5c4a\u4e09\u4e2d\u5168\u4f1a\u7cbe\u795e\u4ee5\u6539\u9769\u521b\u65b0\u4e3a\u52a8\u529b\u63a8\u8fdb\u7f8e\u4e3d\u4e2d\u56fd\u5efa\u8bbe"},
{"date": "2014-01-08", "province": "\u4e0a\u6d77", "link": "http://www.cenews.com.cn/xwzx2013/bwdt//201401/t20140108_755135.html", "city": null, "title": "\u5468\u751f\u8d24\u8d74\u4e0a\u6d77\u5e02\u8c03\u7814\u5927\u6c14\u6c61\u67d3\u9632\u6cbb\u5de5\u4f5c"},
{"date": "2013-12-25", "province": null, "link": "http://www.cenews.com.cn/xwzx2013/bwdt//201312/t20131225_754360.html", "city": null, "title": "\u8981\u8fdb\u4e00\u6b65\u52a0\u5f3a\u540e\u52e4\u7ba1\u7406\u589e\u5f3a\u670d\u52a1\u4fdd\u969c\u80fd\u529b"},
{"date": "2013-12-25", "province": null, "link": "http://www.cenews.com.cn/xwzx2013/bwdt//201312/t20131225_754363.html", "city": null, "title": "\u52a0\u5f3a\u73ed\u5b50\u5efa\u8bbe \u63d0\u9ad8\u79d1\u5b66\u53d1\u5c55\u80fd\u529b"},
{"date": "2013-12-23", "province": null, "link": "http://www.cenews.com.cn/xwzx2013/bwdt//201312/t20131223_754196.html", "city": null, "title": "\u5468\u672c\u987a\u5f20\u5e86\u4f1f\u4f1a\u89c1\u73af\u4fdd\u90e8\u90e8\u957f\u5468\u751f\u8d24"},
{"date": "2013-12-20", "province": null, "link": "http://www.cenews.com.cn/xwzx2013/bwdt//201312/t20131220_754017.html", "city": null, "title": "\u5b8c\u5584\u81ea\u7136\u4fdd\u62a4\u533a\u5236\u5ea6\u5efa\u8bbe"},
{"date": "2013-12-17", "province": null, "link": "http://www.cenews.com.cn/xwzx2013/bwdt//201312/t20131217_753690.html", "city": null, "title": "\u5f20\u9ad8\u4e3d:\u5927\u529b\u63a8\u8fdb\u751f\u6001\u6587\u660e\u52aa\u529b\u5efa\u8bbe\u7f8e\u4e3d\u4e2d\u56fd"},
{"date": "2013-12-17", "province": null, "link": "http://www.cenews.com.cn/xwzx2013/bwdt//201312/t20131217_753642.html", "city": null, "title": "\u5468\u751f\u8d24\u4f1a\u89c1\u5766\u6851\u5c3c\u4e9a\u73af\u5883\u56fd\u52a1\u90e8\u957f"},
{"date": "2013-12-13", "province": null, "link": "http://www.cenews.com.cn/xwzx2013/bwdt//201312/t20131213_753390.html", "city": null, "title": "\u8981\u786e\u4fdd\u6559\u80b2\u5b9e\u8df5\u6d3b\u52a8\u53d6\u5f97\u5b9e\u6548"},
{"date": "2013-12-12", "province": null, "link": "http://www.cenews.com.cn/xwzx2013/bwdt//201312/t20131212_753258.html", "city": null, "title": "\u62d3\u5c55\u7efc\u5408\u7763\u67e5 \u63a2\u7d22\u73af\u4fdd\u65b0\u8def"},
{"date": "2013-12-12", "province": null, "link": "http://www.cenews.com.cn/xwzx2013/bwdt//201312/t20131212_753257.html", "city": null, "title": "\u4e2d\u54c8\u73af\u4fdd\u5408\u4f5c\u59d4\u5458\u4f1a\u7b2c\u4e09\u6b21\u4f1a\u8bae\u53ec\u5f00"},
{"date": "2013-12-11", "province": "\u6fb3\u95e8", "link": "http://www.cenews.com.cn/xwzx2013/bwdt//201312/t20131211_753133.html", "city": null, "title": "\u7fdf\u9752\u4f1a\u89c1\u6fb3\u95e8\u7279\u533a\u8fd0\u8f93\u5de5\u52a1\u53f8\u53f8\u957f"},
{"date": "2013-12-10", "province": null, "link": "http://www.cenews.com.cn/xwzx2013/bwdt//201312/t20131210_753001.html", "city": null, "title": "\u8981\u6ce8\u91cd\u73b0\u6709\u6210\u679c\u7684\u603b\u7ed3\u51dd\u7ec3\u793a\u8303\u63a8\u5e7f"},
{"date": "2013-12-03", "province": null, "link": "http://www.cenews.com.cn/xwzx2013/bwdt//201312/t20131203_752304.html", "city": null, "title": "\u674e\u5e72\u6770\u4f1a\u89c1\u6cd5\u56fd\u963f\u6d77\u73d0\u96c6\u56e2\u9ad8\u7ea7\u6267\u884c\u526f\u603b\u88c1"},
{"date": "2013-11-26", "province": null, "link": "http://www.cenews.com.cn/xwzx2013/bwdt//201311/t20131126_751591.html", "city": null, "title": "\u674e\u5e72\u6770\u4f1a\u89c1\u6cd5\u56fd\u524d\u603b\u7406\u5fb7\u7ef4\u5c14\u6f58"},
{"date": "2013-11-21", "province": null, "link": "http://www.cenews.com.cn/xwzx2013/bwdt//201311/t20131121_751091.html", "city": null, "title": "\u5468\u751f\u8d24:\u7ea0\u6b63\u5730\u65b9\u5e72\u9884\u73af\u5883\u76d1\u7ba1\u8981\u72ec\u7acb\u7edf\u4e00"},
{"date": "2013-11-14", "province": null, "link": "http://www.cenews.com.cn/xwzx2013/bwdt//201311/t20131114_750287.html", "city": null, "title": "\u5468\u751f\u8d24\u5728\u56fd\u5408\u4f1a2013\u5e74\u5e74\u4f1a\u4e0a\u53d1\u8868\u7279\u522b\u6f14\u8bb2"},
{"date": "2013-11-20", "province": null, "link": "http://www.cenews.com.cn/xwzx2013/bwdt//201311/t20131120_751032.html", "city": null, "title": "\u5168\u56fd\u73af\u4fdd\u7cfb\u7edf\u63f4\u7586\u5de5\u4f5c\u5ea7\u8c08\u4f1a\u4e3e\u529e"},
{"date": "2013-11-14", "province": null, "link": "http://www.cenews.com.cn/xwzx2013/bwdt//201311/t20131114_750365.html", "city": null, "title": "\u4e07\u672c\u592a\u4f1a\u89c1\u4ee5\u8272\u5217\u73af\u4fdd\u90e8\u603b\u53f8\u957f"},
{"date": "2013-11-14", "province": null, "link": "http://www.cenews.com.cn/xwzx2013/bwdt//201311/t20131114_750297.html", "city": null, "title": "\u73af\u5883\u4fdd\u62a4\u90e8\u4e3e\u529e\u300a\u5927\u6c14\u6c61\u67d3\u9632\u6cbb\u884c\u52a8\u8ba1\u5212\u300b\u7cfb\u5217\u62a5\u544a\u4f1a"},
{"date": "2013-11-14", "province": null, "link": "http://www.cenews.com.cn/xwzx2013/bwdt//201311/t20131114_750292.html", "city": null, "title": "\u7eff\u8272\u521b\u65b0\u6280\u672f\u4ea7\u54c1\u5c55\u4e3e\u529e \u5434\u6653\u9752\u51fa\u5e2d\u5e76\u8bb2\u8bdd"},
{"date": "2013-11-14", "province": null, "link": "http://www.cenews.com.cn/xwzx2013/bwdt//201311/t20131114_750290.html", "city": null, "title": "\u73af\u5883\u4fdd\u62a4\u90e8\u53ec\u5f00\u515a\u7ec4\u4e2d\u5fc3\u7ec4\u5b66\u4e60\u4f1a"},
{"date": "2013-11-14", "province": null, "link": "http://www.cenews.com.cn/xwzx2013/bwdt//201311/t20131114_750294.html", "city": null, "title": "\u6838\u4e0e\u8f90\u5c04\u5b89\u5168\u76d1\u7ba1\u5927\u8ba8\u8bba\u6d3b\u52a8\u4e3e\u529e \u674e\u5e72\u6770\u51fa\u5e2d\u6d3b\u52a8\u5e76\u8bb2\u8bdd"},
{"date": "2013-11-14", "province": null, "link": "http://www.cenews.com.cn/xwzx2013/bwdt//201311/t20131114_750285.html", "city": null, "title": "\u5434\u6653\u9752\u51fa\u5e2d\u73af\u5883\u4fdd\u62a4\u79d1\u5b66\u6280\u672f\u5956\u8bc4\u5ba1\u4f1a"},
{"date": "2013-11-14", "province": null, "link": "http://www.cenews.com.cn/xwzx2013/bwdt//201311/t20131114_750295.html", "city": null, "title": "\u674e\u5e72\u6770\u4f1a\u89c1\u7259\u4e70\u52a0\u6c34\u5229\u3001\u571f\u5730\u3001\u73af\u5883\u548c\u6c14\u5019\u53d8\u5316\u90e8\u90e8\u957f"},
{"date": "2013-11-14", "province": null, "link": "http://www.cenews.com.cn/xwzx2013/bwdt//201311/t20131114_750282.html", "city": null, "title": "\u201c\u675c\u90a6\u676f\u201d\u73af\u5883\u597d\u65b0\u95fb\u9881\u5956\u4eea\u5f0f\u4e3e\u884c \u6f58\u5cb3\u51fa\u5e2d\u5e76\u8bb2\u8bdd"},
{"date": "2013-10-29", "province": null, "link": "http://www.cenews.com.cn/xwzx2013/bwdt//201311/t20131114_750271.html", "city": null, "title": "\u5468\u751f\u8d24\u4f1a\u89c1\u7f8e\u56fd\u8054\u90a6\u73af\u4fdd\u5c40\u524d\u5c40\u957f\u3001\u82f9\u679c\u516c\u53f8\u73af\u5883\u4e8b\u52a1\u5168\u7403\u526f\u603b\u88c1"},
{"date": "2013-09-11", "province": null, "link": "http://www.cenews.com.cn/xwzx2013/bwdt//201311/t20131114_750270.html", "city": null, "title": "\u5468\u751f\u8d24\u4e3b\u6301\u53ec\u5f00\u73af\u5883\u4fdd\u62a4\u90e8\u5e38\u52a1\u4f1a\u8bae"},
{"date": "2013-09-11", "province": null, "link": "http://www.cenews.com.cn/xwzx2013/bwdt//201311/t20131114_750269.html", "city": null, "title": "\u5468\u751f\u8d24\u4f1a\u89c1\u82ac\u5170\u73af\u5883\u90e8\u957f"},
{"date": "2013-09-10", "province": null, "link": "http://www.cenews.com.cn/xwzx2013/bwdt//201311/t20131114_750268.html", "city": null, "title": "\u5468\u751f\u8d24\u4f1a\u89c1\u6bd4\u5229\u65f6\u6cd5\u5170\u5fb7\u65af\u5927\u533a\u653f\u5e9c\u9996\u5e2d\u5927\u81e3"},
{"date": "2013-11-14", "province": null, "link": "http://www.cenews.com.cn/xwzx2013/bwdt//201311/t20131114_750284.html", "city": null, "title": "\u6f58\u5cb3\u5f3a\u8c03:\u7d27\u7d27\u56f4\u7ed5\u56fd\u5bb6\u73af\u4fdd\u91cd\u5927\u4f7f\u547d\u5f00\u5c55\u653f\u7b56\u7814\u7a76"},
{"date": "2013-08-29", "province": null, "link": "http://www.cenews.com.cn/xwzx2013/bwdt//201311/t20131114_750267.html", "city": null, "title": "\u5468\u751f\u8d24\u4f1a\u89c1\u53e4\u5df4\u79d1\u6280\u4e0e\u73af\u5883\u90e8\u90e8\u957f"},
{"date": "2013-08-21", "province": null, "link": "http://www.cenews.com.cn/xwzx2013/bwdt//201311/t20131114_750266.html", "city": null, "title": "\u5468\u751f\u8d24\u4f1a\u89c1\u80af\u5c3c\u4e9a\u73af\u5883\u3001\u6c34\u4e0e\u81ea\u7136\u8d44\u6e90\u90e8\u90e8\u957f"},
{"date": "2013-08-29", "province": null, "link": "http://www.cenews.com.cn/xwzx2013/bwdt//201311/t20131114_750254.html", "city": null, "title": "\u73af\u5883\u4fdd\u62a4\u90e8\u53d1\u5e032012\u5e74\u5ea6\u5168\u56fd\u4e3b\u8981\u6c61\u67d3\u7269\u603b\u91cf\u51cf\u6392\u60c5\u51b5\u8003\u6838\u7ed3\u679c"},
{"date": "2013-11-08", "province": "\u9ed1\u9f99\u6c5f", "link": "http://www.cenews.com.cn/xwzx2013/bwdt//201311/t20131114_750175.html", "city": null, "title": "\u5468\u751f\u8d24\u8c03\u7814\u9ed1\u9f99\u6c5f\u7701\u5927\u6c14\u6c61\u67d3\u9632\u6cbb\u5de5\u4f5c"},
{"date": "2013-11-14", "province": null, "link": "http://www.cenews.com.cn/xwzx2013/bwdt//201311/t20131114_750157.html", "city": null, "title": "\u73af\u4fdd\u90e8\uff1a\u6ca1\u6709\u84dd\u5929\u767d\u4e91 \u5efa\u8bbe\u7f8e\u4e3d\u4e2d\u56fd\u5c31\u65e0\u4ece\u8c08\u8d77"}]