[{"date": "2012-01-09", "province": null, "link": "http://news.xinhuanet.com/environment/2012-01/09/c_122538867.htm", "city": null, "title": "\u65e0\u94b1\u96be\u5012PM2.5\uff1f"},
{"date": "2012-01-02", "province": null, "link": "http://news.xinhuanet.com/environment/2012-01/02/c_122491932.htm", "city": null, "title": "\u76d8\u70b9\u80fd\u6e90\u73af\u4fdd\u5927\u7247"},
{"date": "2010-11-25", "province": null, "link": "http://news.xinhuanet.com/environment/2010-11/25/c_12810957.htm", "city": null, "title": "2010\u4e2d\u56fd\u7eff\u535a\u4f1a"}]
