[{"date": "2014-11-27", "province": null, "link": "http://news.xinhuanet.com/environment/2014-11/27/c_127255032.htm", "city": null, "title": "\u5355\u53cc\u53f7\u9650\u884c\u653f\u7b56\u9677\u70ed\u8bae \u662f\u5426\u5b9e\u65bd\u5c06\u7814\u7a76\u8bba\u8bc1\u540e\u51b3\u5b9a"},
{"date": "2014-11-21", "province": "\u5317\u4eac", "link": "http://news.xinhuanet.com/environment/2014-11/21/c_127236294.htm", "city": null, "title": "\u4e2d\u592e\u6c14\u8c61\u53f0\u53d1\u5e03\u973e\u9884\u8b66 \u5317\u4eac\u7b49\u5730\u6709\u91cd\u5ea6\u973e"},
{"date": "2014-11-21", "province": "\u5317\u4eac", "link": "http://news.xinhuanet.com/environment/2014-11/21/c_127236188.htm", "city": null, "title": "\u5317\u4eac\u7814\u7a766\u6761\u57ce\u5e02\u98ce\u9053\u5439\u96fe\u973e"},
{"date": "2013-10-23", "province": "\u5317\u4eac", "link": "http://news.xinhuanet.com/environment/2013-10/23/c_125583888.htm", "city": null, "title": "\u5317\u4eac\u91cd\u6c61\u67d3\u5929\u6c14\u5355\u53cc\u53f7\u9650\u884c \u529b\u4e89\u63d0\u524d24\u5c0f\u65f6\u901a\u77e5"},
{"date": "2013-10-22", "province": "\u5317\u4eac", "link": "http://news.xinhuanet.com/environment/2013-10/22/c_125580032.htm", "city": null, "title": "\u5317\u4eac\u516c\u5e03\u7a7a\u6c14\u91cd\u6c61\u67d3\u5e94\u6025\u9884\u6848(\u5168\u6587)"},
{"date": "2013-10-22", "province": null, "link": "http://news.xinhuanet.com/environment/2013-10/22/c_125576362.htm", "city": null, "title": "\u7b2c\u4e8c\u4e2a\u73af\u4fdd\u4e13\u9879\u8ba1\u5212\u5c06\u51fa\u53f0 \u571f\u58e4\u73af\u4fdd\u884c\u52a8\u8ba1\u5212\u5df2\u4e0a\u62a5"},
{"date": "2013-05-10", "province": null, "link": "http://news.xinhuanet.com/environment/2013-05/10/c_124690446.htm", "city": null, "title": "\u53d1\u6ce1\u9910\u5177\u89e3\u7981\u73af\u4fdd\u9910\u5177\u4f01\u4e1a\u201c\u53d7\u4f24\u201d"},
{"date": "2013-04-22", "province": null, "link": "http://news.xinhuanet.com/environment/2013-04/22/c_124610395.htm", "city": null, "title": "\u897f\u90e8\u5927\u5f00\u53d1\u6218\u7565\u73af\u8bc4\u603b\u4f53\u6210\u679c\u901a\u8fc7\u4e13\u5bb6\u9a8c\u6536"},
{"date": "2013-03-29", "province": null, "link": "http://news.xinhuanet.com/environment/2013-03/29/c_124519468.htm", "city": null, "title": "\u5de5\u4e1a\u8282\u80fd\u4e0e\u7eff\u8272\u53d1\u5c55\u5b9e\u65bd\u65b9\u6848\u53d1\u5e03"},
{"date": "2013-03-22", "province": null, "link": "http://news.xinhuanet.com/environment/2013-03/22/c_124490076.htm", "city": null, "title": "\u6c34\u8d44\u6e90\u6572\u8b66\u949f \u201c\u6700\u4e25\u4fdd\u62a4\u201d\u5f85\u843d\u5b9e"},
{"date": "2013-03-15", "province": null, "link": "http://news.xinhuanet.com/environment/2013-03/15/c_124462253.htm", "city": null, "title": "\u4e03\u5927\u6d41\u57df\u7efc\u5408\u89c4\u5212\u83b7\u6279 \u5c06\u5b9e\u884c\u6700\u4e25\u6c34\u8d44\u6e90\u7ba1\u7406\u5236\u5ea6"},
{"date": "2013-03-06", "province": null, "link": "http://news.xinhuanet.com/environment/2013-03/06/c_124421301.htm", "city": null, "title": "\u56fd\u52a1\u9662\u8d28\u91cf\u53d1\u5c55\u7eb2\u8981 \u5f3a\u8c03\u6539\u5584\u5927\u6c14\u73af\u5883\u8d28\u91cf"},
{"date": "2013-02-26", "province": null, "link": "http://news.xinhuanet.com/environment/2013-02/26/c_124390569.htm", "city": null, "title": "\u6211\u56fd\u5df2\u5efa\u7acb\u5e38\u89c4\u96fe\u973e\u5929\u6c14\u76d1\u6d4b\u7f51"},
{"date": "2013-02-26", "province": null, "link": "http://news.xinhuanet.com/environment/2013-02/26/c_124388493.htm", "city": null, "title": "\u91ce\u751f\u52a8\u7269\u4fdd\u62a4\u6cd5\u4fee\u6539\u601d\u8def\u5df2\u5f62\u6210"},
{"date": "2013-01-31", "province": null, "link": "http://news.xinhuanet.com/environment/2013-01/31/c_124303162.htm", "city": null, "title": "\u751f\u6001\u4fdd\u62a4\u201c\u5341\u4e8c\u4e94\u201d\u89c4\u5212\u5370\u53d1 \u8981\u6c42\u52a0\u5927\u751f\u6001\u4fdd\u62a4\u6295\u5165"},
{"date": "2013-01-29", "province": null, "link": "http://news.xinhuanet.com/environment/2013-01/29/c_124291828.htm", "city": null, "title": "\u56fd\u52a1\u9662\uff1a2015\u5e74\u521d\u6b65\u904f\u5236\u571f\u58e4\u6c61\u67d3\u5347\u52bf"},
{"date": "2013-01-25", "province": null, "link": "http://news.xinhuanet.com/environment/2013-01/25/c_124277848.htm", "city": null, "title": "\u6c34\u8d44\u6e90\u8d39\u5c06\u5e73\u5747\u4e0a\u8c0336% \u5c45\u6c11\u7528\u6c34\u53ef\u80fd\u8d28\u4ef7\u9f50\u5347"},
{"date": "2013-01-24", "province": "\u5317\u4eac", "link": "http://news.xinhuanet.com/environment/2013-01/24/c_124274102.htm", "city": null, "title": "\u5317\u4eac\u542f\u52a8\u5ba4\u5185PM2.5\u76d1\u6d4b\u7814\u7a76 \u7ed3\u679c\u5c06\u7528\u4e8e\u4f20\u67d3\u75c5\u9884\u8b66"},
{"date": "2013-01-17", "province": null, "link": "http://news.xinhuanet.com/environment/2013-01/17/c_124242825.htm", "city": null, "title": "\u751f\u6001\u6548\u76ca\u8865\u507f\u5236\u5ea6\u6216\u6210\u4fee\u6cd5\u91cd\u70b9"},
{"date": "2012-12-26", "province": null, "link": "http://news.xinhuanet.com/environment/2012-12/26/c_124148936.htm", "city": null, "title": "\u516c\u5171\u573a\u6240\u4e09\u5e74\u5185\u5168\u9762\u7981\u70df \u9650\u5236\u201c\u5929\u4ef7\u70df\u201d\u4e0a\u5e02"},
{"date": "2012-12-21", "province": null, "link": "http://news.xinhuanet.com/environment/2012-12/21/c_124127398.htm", "city": null, "title": "\u4e24\u90e8\u95e8\uff1a\u8fbe\u4e0d\u5230\u73af\u4fdd\u8981\u6c42\u5c3e\u77ff\u5e93\u5c06\u5173\u95ed\u505c\u7528"},
{"date": "2012-12-06", "province": null, "link": "http://news.xinhuanet.com/environment/2012-12/06/c_124055327.htm", "city": null, "title": "\u53d1\u52a8\u673a\u4e0e\u6c7d\u8f66\u73af\u4fdd\u65b0\u6807\u51c6\u516c\u5e03"},
{"date": "2012-12-06", "province": null, "link": "http://news.xinhuanet.com/environment/2012-12/06/c_124054549.htm", "city": null, "title": "\u5341\u4e8c\u4e94\u5927\u6c14\u6c61\u67d3\u9632\u6cbb\u91cd\u70b9\u5de5\u7a0b\u6295\u8d44\u7ea63500\u4ebf"},
{"date": "2012-11-27", "province": "\u5317\u4eac", "link": "http://news.xinhuanet.com/environment/2012-11/27/c_124009018.htm", "city": null, "title": "\u5317\u4eac\u660e\u5e74\u63a7\u70df\u65b0\u4e3e \u5c06\u63a8\u65e0\u70df\u673a\u5173"},
{"date": "2012-11-22", "province": null, "link": "http://news.xinhuanet.com/environment/2012-11/22/c_123986417.htm", "city": null, "title": "\u73af\u5883\u4fdd\u62a4\u6cd5\u4fee\u8ba2\uff1a\u201c\u6309\u65e5\u8ba1\u7f5a\u201d\u5982\u4f55\u5165\u6cd5"},
{"date": "2012-11-07", "province": "\u5e7f\u4e1c", "link": "http://news.xinhuanet.com/environment/2012-11/07/c_123923604.htm", "city": "\u5e7f\u5dde", "title": "\u5e7f\u5dde\uff1a\u63a7\u70df\u9664\u201c\u7f5a\u4e2a\u4eba\u201d \u8fd8\u8981\u5f3a\u5316\u201c\u7f5a\u573a\u6240\u201d"},
{"date": "2012-11-02", "province": null, "link": "http://news.xinhuanet.com/environment/2012-11/02/c_123907173.htm", "city": null, "title": "\u73af\u4fdd\u90e8\u7b49\u56db\u90e8\u59d4\uff1a\u5371\u9669\u5e9f\u7269\u7ba1\u7406\u5408\u683c\u7387\u987b\u8d859\u6210"},
{"date": "2012-11-02", "province": null, "link": "http://news.xinhuanet.com/environment/2012-11/02/c_123905005.htm", "city": null, "title": "\u8bc4\u8bba\uff1a\u73af\u4fdd\u6cd5\u4fee\u6539\u5f53\u201c\u4e00\u5207\u4e3a\u4e86\u73af\u4fdd\u201d"},
{"date": "2012-11-01", "province": null, "link": "http://news.xinhuanet.com/environment/2012-11/01/c_123902625.htm", "city": null, "title": "\u5371\u9669\u5e9f\u7269\u6c61\u67d3\u9632\u6cbb\u201c\u5341\u4e8c\u4e94\u201d\u89c4\u5212\u53d1\u5e03"},
{"date": "2012-11-01", "province": null, "link": "http://news.xinhuanet.com/environment/2012-11/01/c_123902180.htm", "city": null, "title": "\u6211\u56fd\u7b2c\u4e00\u90e8\u300a\u4e50\u5668\u6709\u5bb3\u7269\u8d28\u9650\u91cf\u300b\u56fd\u6807\u4eca\u8d77\u5b9e\u65bd"},
{"date": "2012-11-01", "province": null, "link": "http://news.xinhuanet.com/environment/2012-11/01/c_123898742.htm", "city": null, "title": "\u73af\u4fdd\u90e8\uff1a\u201c\u4fee\u6b63\u6848\u8349\u6848\u201d \u5f31\u5316\u73af\u4fdd\u90e8\u95e8\u5b8f\u89c2\u804c\u80fd"},
{"date": "2012-11-01", "province": null, "link": "http://news.xinhuanet.com/environment/2012-11/01/c_123898394.htm", "city": null, "title": "\u73af\u4fdd\u90e8\u8981\u6c42\u72ec\u4eab\u73af\u5883\u6807\u51c6\u5236\u5b9a\u6743"},
{"date": "2012-10-20", "province": "\u5e7f\u897f", "link": "http://news.xinhuanet.com/environment/2012-10/20/c_123848388.htm", "city": null, "title": "\u5e7f\u897f\u51fa\u53f0\u73af\u4fdd\u8fc7\u9519\u95ee\u8d23\u529e\u6cd5"},
{"date": "2012-10-17", "province": null, "link": "http://news.xinhuanet.com/environment/2012-10/17/c_123833750.htm", "city": null, "title": "\u8282\u80fd\u5bb6\u7535\u8d22\u653f\u8865\u8d34\u8d44\u91d1\u5b9e\u884c\u6309\u65ec\u9884\u62e8"},
{"date": "2012-10-17", "province": null, "link": "http://news.xinhuanet.com/environment/2012-10/17/c_123833278.htm", "city": null, "title": "\u4e25\u91cd\u8fdd\u53cd\u5371\u5316\u7ba1\u7406\u529e\u6cd5\u8005\u4e0d\u4e88\u901a\u8fc7\u4e0a\u5e02\u516c\u53f8\u73af\u4fdd\u6838\u67e5"},
{"date": "2012-10-15", "province": null, "link": "http://news.xinhuanet.com/environment/2012-10/15/c_123822685.htm", "city": null, "title": "\u56fd\u5bb6\u4e25\u683c\u5e9f\u5f03\u7535\u5668\u62c6\u89e3\u5904\u7406 43\u5bb6\u62c6\u89e3\u4f01\u4e1a\u83b7\u8865\u8d34"},
{"date": "2012-10-15", "province": null, "link": "http://news.xinhuanet.com/environment/2012-10/15/c_123821521.htm", "city": null, "title": "\u73af\u4fdd\u90e8\u915d\u917f\u7167\u660e\u4e1a\u6c5e\u9632\u6cbb\u65b0\u653f"},
{"date": "2012-10-13", "province": null, "link": "http://news.xinhuanet.com/environment/2012-10/13/c_123818405.htm", "city": null, "title": "\u4ece\u4e25\u5ba1\u6838\u5e9f\u5f03\u7535\u5668\u7535\u5b50\u4ea7\u54c1\u62c6\u89e3\u5904\u7406"},
{"date": "2012-10-13", "province": null, "link": "http://news.xinhuanet.com/environment/2012-10/13/c_123818135.htm", "city": null, "title": "\u300a\u8282\u80fd\u51cf\u6392\u201c\u5341\u4e8c\u4e94\u201d\u89c4\u5212\u300b\u53d1\u5e03"},
{"date": "2012-10-10", "province": "\u5c71\u4e1c", "link": "http://news.xinhuanet.com/environment/2012-10/10/c_123806434.htm", "city": null, "title": "\u5c71\u4e1c\u8bde\u751f\u9996\u90e8\u6e56\u6cca\u4fdd\u62a4\u6cd5\u89c4"},
{"date": "2012-10-09", "province": "\u5e7f\u4e1c", "link": "http://news.xinhuanet.com/environment/2012-10/09/c_123798594.htm", "city": "\u4e2d\u5c71", "title": "\u5e7f\u4e1c\u4e2d\u5c71\u751f\u6d3b\u6c61\u6c34\u5904\u7406\u8d39\u5f81\u6536\u6807\u51c6\u62df\u8c03\u6574"},
{"date": "2012-10-08", "province": null, "link": "http://news.xinhuanet.com/environment/2012-10/08/c_123795880.htm", "city": null, "title": "\u73af\u4fdd\u6cd5\u4fee\u6b63\u6848\u8349\u6848\u5f81\u610f\u89c1 \u73af\u4fdd\u6cd5\u6267\u884c\u5982\u4f55\u66f4\u6709\u529b"},
{"date": "2012-09-29", "province": null, "link": "http://news.xinhuanet.com/environment/2012-09/29/c_123779498.htm", "city": null, "title": "\u9910\u53a8\u5e9f\u5f03\u7269\u53bb\u5411\u62df\u5b9a\u671f\u4e0a\u62a5"},
{"date": "2012-09-29", "province": "\u5317\u4eac", "link": "http://news.xinhuanet.com/environment/2012-09/29/c_123779219.htm", "city": null, "title": "\u5317\u4eac\u5e02\u57ce\u5e02\u6cb3\u6e56\u5c06\u5212\u5b9a\u6e38\u6cf3\u5782\u9493\u533a"},
{"date": "2012-09-28", "province": null, "link": "http://news.xinhuanet.com/environment/2012-09/28/c_123774784.htm", "city": null, "title": "\u73af\u4fdd\u6cd5\u518d\u4fee\u6539\u201c\u73af\u4fdd\u516c\u76ca\u8bc9\u8bbc\u201d\u4ecd\u7136\u65c1\u843d"},
{"date": "2012-09-27", "province": null, "link": "http://news.xinhuanet.com/environment/2012-09/27/c_123768811.htm", "city": null, "title": "\u9910\u5385\u5bbe\u9986\u4e0d\u5f97\u514d\u8d39\u63d0\u4f9b \u4e00\u6b21\u6027\u7b77\u5b50\u7259\u5237\u62d6\u978b"},
{"date": "2012-09-07", "province": null, "link": "http://news.xinhuanet.com/environment/2012-09/07/c_123683467.htm", "city": null, "title": "\u6c14\u8c61\u8bbe\u65bd\u4fdd\u62a4\u6761\u4f8b6\u65e5\u516c\u5e03 \u7834\u574f\u6c14\u8c61\u8bbe\u65bd\u6700\u9ad8\u7f5a5\u4e07"},
{"date": "2012-09-03", "province": null, "link": "http://news.xinhuanet.com/environment/2012-09/03/c_123665287.htm", "city": null, "title": "\u73af\u4fdd\u6cd5\u4fee\u6539\u5e94\u5f3a\u5316\u73af\u5883\u5f71\u54cd\u8bc4\u4ef7"},
{"date": "2012-08-31", "province": null, "link": "http://news.xinhuanet.com/environment/2012-08/31/c_123655156.htm", "city": null, "title": "\u73af\u4fdd\u6cd5\u4fee\u6b63\u6848\u8349\u6848\u672a\u5199\u201c\u516c\u76ca\u8bc9\u8bbc\u201d\u201c\u6309\u65e5\u8ba1\u7f5a\u201d"},
{"date": "2012-08-28", "province": null, "link": "http://news.xinhuanet.com/environment/2012-08/28/c_123640076.htm", "city": null, "title": "\u73af\u4fdd\u6cd5\u5b9e\u65bd23\u5e74\u6765\u9996\u6b21\u4fee\u6539 \u62df\u589e\u52a0\u73af\u5883\u4fe1\u606f\u516c\u5f00"},
{"date": "2012-08-22", "province": "\u5317\u4eac", "link": "http://news.xinhuanet.com/environment/2012-08/22/c_123613606.htm", "city": null, "title": "\u201c\u5317\u4eac\u6cb3\u6e56\u4fdd\u62a4\u7ba1\u7406\u6761\u4f8b\u201d10\u67081\u65e5\u8d77\u5b9e\u65bd"},
{"date": "2012-08-22", "province": null, "link": "http://news.xinhuanet.com/environment/2012-08/22/c_123613385.htm", "city": null, "title": "\u56fd\u52a1\u9662\u5370\u53d1\u8282\u80fd\u51cf\u6392\u201c\u5341\u4e8c\u4e94\u201d\u89c4\u5212 \u5b9e\u884c\u95ee\u8d23\u5236"},
{"date": "2012-08-17", "province": "\u7518\u8083", "link": "http://news.xinhuanet.com/environment/2012-08/17/c_123596581.htm", "city": null, "title": "\u7518\u8083\u5c06\u5efa\u6c34\u571f\u4fdd\u6301\u8865\u507f\u673a\u5236 \u52a0\u5f3a\u6c34\u571f\u6d41\u5931\u9884\u9632\u548c\u6cbb\u7406"},
{"date": "2012-08-15", "province": "\u7518\u8083", "link": "http://news.xinhuanet.com/environment/2012-08/15/c_123584078.htm", "city": null, "title": "\u7518\u8083\uff1a\u6c34\u571f\u6d41\u5931\u201c\u91cd\u707e\u533a\u201d\u7981\u6b62\u4e71\u91c7\u6ee5\u6316"},
{"date": "2012-08-14", "province": null, "link": "http://news.xinhuanet.com/environment/2012-08/14/c_123581827.htm", "city": null, "title": "\u516b\u6210\u53d7\u8bbf\u8005\uff1a\u4eca\u5e74\u672a\u6536\u5230\u9ad8\u6e29\u6d25\u8d34 \u76d1\u5bdf\u6267\u6cd5\u4e0d\u5230\u4f4d\uff1f"},
{"date": "2012-08-02", "province": "\u5e7f\u4e1c", "link": "http://news.xinhuanet.com/environment/2012-08/02/c_123513743.htm", "city": "\u5e7f\u5dde", "title": "\u5e7f\u5dde\u5783\u573e\u5206\u7c7b\u4e09\u5927\u6a21\u5f0f\u5b9e\u65bd \u5c45\u6c11\u666e\u904d\u6b22\u8fce\u548c\u652f\u6301"},
{"date": "2012-08-02", "province": null, "link": "http://news.xinhuanet.com/environment/2012-08/02/c_123513235.htm", "city": null, "title": "\u73af\u4fdd\u90e8\uff1a\u91cd\u578b\u6c7d\u8f662013\u5e747\u67081\u65e5\u8d77\u5c06\u5b9e\u65bd\u56fd\u2163\u6807\u51c6"},
{"date": "2012-08-01", "province": "\u8d35\u5dde", "link": "http://news.xinhuanet.com/environment/2012-08/01/c_123507087.htm", "city": "\u8d35\u9633", "title": "\u8d35\u9633\u4e4c\u5f53\u8ba9\u73af\u4fdd\u961f\u4f0d\u4ece40\u4eba\u53d8\u621030\u4e07 \u8c01\u4e3e\u62a5\u5c31\u5956\u52b1\u8c01"},
{"date": "2012-07-27", "province": null, "link": "http://news.xinhuanet.com/environment/2012-07/27/c_123475739.htm", "city": null, "title": "\u6c34\u5229\u90e8\uff1a\u6c11\u95f4\u8d44\u672c\u53c2\u4e0e\u6c34\u571f\u4fdd\u6301\u5de5\u7a0b\u5efa\u8bbe\u53ef\u83b7\u5956\u52b1\u6276\u6301"},
{"date": "2012-07-13", "province": "\u5317\u4eac", "link": "http://news.xinhuanet.com/environment/2012-07/13/c_123407822.htm", "city": null, "title": "\u5317\u4eac\u5e02\u6709\u671b\u51fa\u53f0\u6e29\u6cc9\u6c34\u8d28\u6807\u51c6"},
{"date": "2012-07-13", "province": null, "link": "http://news.xinhuanet.com/environment/2012-07/13/c_123407185.htm", "city": null, "title": "\u6e29\u6cc9\u6c34\u8d28\u6807\u51c6\u6216\u5e74\u5185\u51fa\u53f0"},
{"date": "2012-07-05", "province": null, "link": "http://news.xinhuanet.com/environment/2012-07/05/c_123373909.htm", "city": null, "title": "\u89e3\u8bfb\u8282\u80fd\u73af\u4fdd\u4ea7\u4e1a\u89c4\u5212\uff1a\u52a9\u529b\u8282\u80fd\u51cf\u6392 \u62c9\u52a8\u7ecf\u6d4e\u589e\u957f"},
{"date": "2012-07-05", "province": null, "link": "http://news.xinhuanet.com/environment/2012-07/05/c_123372890.htm", "city": null, "title": "\u8282\u80fd\u73af\u4fdd\u4ea7\u4e1a\u5341\u4e8c\u4e94\u89c4\u5212\u51fa\u53f0 \u5c06\u5e26\u52a8\u4e07\u4ebf\u6295\u8d44"},
{"date": "2012-07-05", "province": null, "link": "http://news.xinhuanet.com/environment/2012-07/05/c_123372721.htm", "city": null, "title": "\u201c\u5341\u4e8c\u4e94\u201d\u8282\u80fd\u73af\u4fdd\u4ea7\u4e1a\u89c4\u5212\u53d1\u5e03 \u603b\u4ea7\u503c\u5c06\u8fbe4.5\u4e07\u4ebf"},
{"date": "2012-06-30", "province": "\u5e7f\u4e1c", "link": "http://news.xinhuanet.com/environment/2012-06/30/c_123352332.htm", "city": "\u5e7f\u5dde", "title": "\u5e7f\u5dde\u4e0b\u6708\u5c06\u8bd5\u70b9\u5783\u573e\u888b\u5b9e\u540d\u5236 \u6309\u888b\u8ba1\u91cf\u6536\u8d39"},
{"date": "2012-06-30", "province": null, "link": "http://news.xinhuanet.com/environment/2012-06/30/c_123351566.htm", "city": null, "title": "\u8282\u80fd\u73af\u4fdd\u201c\u5341\u4e8c\u4e94\u201d\u89c4\u5212\u51fa\u7089 2015\u5e74\u4ea7\u503c\u8fbe4.5\u4e07\u4ebf"},
{"date": "2012-06-30", "province": null, "link": "http://news.xinhuanet.com/environment/2012-06/30/c_123351517.htm", "city": null, "title": "\u201c\u5341\u4e8c\u4e94\u201d\u8282\u80fd\u73af\u4fdd\u4ea7\u4e1a\u53d1\u5c55\u89c4\u5212\u5370\u53d1"},
{"date": "2012-06-27", "province": null, "link": "http://news.xinhuanet.com/environment/2012-06/27/c_123338894.htm", "city": null, "title": "\u91cd\u8981\u6c5f\u6cb3\u6e56\u5e93\u6c34\u529f\u80fd\u533a\u6c34\u8d28\u8fbe\u6807\u73872015\u5e74\u5c06\u589e\u81f360%\u5de6\u53f3"},
{"date": "2012-06-27", "province": null, "link": "http://news.xinhuanet.com/environment/2012-06/27/c_123338895.htm", "city": null, "title": "\u6211\u56fd\u62df\u5c06\u996e\u7528\u6c34\u5b89\u5168\u4fdd\u969c\u5de5\u4f5c\u7eb3\u5165\u5730\u65b9\u653f\u5e9c\u8003\u6838\u4f53\u7cfb"},
{"date": "2012-06-27", "province": null, "link": "http://news.xinhuanet.com/environment/2012-06/27/c_123338893.htm", "city": null, "title": "\u201c\u5341\u4e00\u4e94\u201d\u671f\u95f4\u4e2d\u592e\u6295\u51651800\u591a\u4ebf\u5143\u4fdd\u969c\u996e\u7528\u6c34\u5b89\u5168"},
{"date": "2012-06-27", "province": null, "link": "http://news.xinhuanet.com/environment/2012-06/27/c_123338891.htm", "city": null, "title": "\u8bbe\u5e02\u57ce\u5e02\u548c\u53bf\u57ce\u516c\u5171\u4f9b\u6c34\u672b\u68a2\u6c34\u8fbe\u6807\u7387\u4e3a79.6%"},
{"date": "2012-06-27", "province": null, "link": "http://news.xinhuanet.com/environment/2012-06/27/c_123338890.htm", "city": null, "title": "\u6211\u56fd\u5c06\u79ef\u6781\u63a8\u884c\u6c34\u4ef7\u8c03\u6574\u6210\u672c\u516c\u5f00\u5236\u5ea6"},
{"date": "2012-06-27", "province": null, "link": "http://news.xinhuanet.com/environment/2012-06/27/c_123338892.htm", "city": null, "title": "\u519c\u6751\u996e\u6c34\u4e0d\u5b89\u5168\u4eba\u53e3\u201c\u5341\u4e00\u4e94\u201d\u51cf\u5c112.21\u4ebf"},
{"date": "2012-06-26", "province": "\u5e7f\u4e1c", "link": "http://news.xinhuanet.com/environment/2012-06/26/c_123333367.htm", "city": null, "title": "\u751f\u6001\u8865\u507f\u547c\u5401\u5e7f\u4e1c\u6837\u672c"},
{"date": "2012-06-26", "province": null, "link": "http://news.xinhuanet.com/environment/2012-06/26/c_123333361.htm", "city": null, "title": "\u7ca4\u6e2f\u6fb3\u516c\u5e03\u201c\u5171\u5efa\u4f18\u8d28\u751f\u6d3b\u5708\u89c4\u5212\u201d"},
{"date": "2012-06-26", "province": "\u5317\u4eac", "link": "http://news.xinhuanet.com/environment/2012-06/26/c_123330604.htm", "city": null, "title": "\u5317\u4eac\uff1a\u8fdd\u89c4\u5904\u7406\u9910\u53a8\u5783\u573e \u6700\u91cd\u540a\u9500\u6267\u7167"},
{"date": "2012-06-21", "province": null, "link": "http://news.xinhuanet.com/environment/2012-06/21/c_123317510.htm", "city": null, "title": "\u300a\u6c34\u5229\u53d1\u5c55\u89c4\u5212\uff0820112015\u5e74\uff09\u300b\u53d1\u5e03"},
{"date": "2012-06-20", "province": null, "link": "http://news.xinhuanet.com/environment/2012-06/20/c_123309692.htm", "city": null, "title": "\u4f4f\u623f\u548c\u57ce\u4e61\u5efa\u8bbe\u90e8\u516c\u5e03\u201c\u5341\u4e8c\u4e94\u201d\u5efa\u7b51\u8282\u80fd\u76ee\u6807"},
{"date": "2012-06-20", "province": null, "link": "http://news.xinhuanet.com/environment/2012-06/20/c_123308378.htm", "city": null, "title": "\u4f4f\u5efa\u90e8\u63a8\u52a8\u5efa\u7b51\u8282\u80fd \u8282\u80fd\u5efa\u7b51\u4e2a\u80a1\u8fce\u4e1c\u98ce"},
{"date": "2012-06-20", "province": null, "link": "http://news.xinhuanet.com/environment/2012-06/20/c_123308305.htm", "city": null, "title": "\u5e9f\u7269\u8d44\u6e90\u5316\u201c\u5341\u4e8c\u4e94\u201d\u89c4\u5212\u53d1\u5e03 \u591a\u884c\u4e1a\u5c06\u83b7\u5229\u597d"},
{"date": "2012-06-18", "province": null, "link": "http://news.xinhuanet.com/environment/2012-06/18/c_123297287.htm", "city": null, "title": "\u4e09\u7c7b\u5bb6\u7535\u8282\u80fd\u8865\u8d34\u76ee\u5f55\u516c\u5e03"},
{"date": "2012-06-12", "province": null, "link": "http://news.xinhuanet.com/environment/2012-06/12/c_123268613.htm", "city": null, "title": "\u4ea4\u901a\u8fd0\u8f93\u90e8\u542f\u7528\u673a\u5173\u516c\u5171\u81ea\u884c\u8f66"},
{"date": "2012-06-12", "province": null, "link": "http://news.xinhuanet.com/environment/2012-06/12/c_123268273.htm", "city": null, "title": "\u8282\u80fd\u73af\u4fdd\u5c55\u53ef\u67e5\u4e2a\u4eba\u78b3\u6392\u653e"},
{"date": "2012-06-06", "province": null, "link": "http://news.xinhuanet.com/environment/2012-06/06/c_123241098.htm", "city": null, "title": "\u73af\u4fdd\u90e8\uff1a\u7740\u624b\u7814\u7a76\u8d77\u8349\u73af\u4fdd\u7a0e\u6cd5\u8349\u6848 \u5c06\u5236\u5b9a\u56fd\u2164\u6cb9\u54c1\u6807\u51c6"},
{"date": "2012-06-05", "province": null, "link": "http://news.xinhuanet.com/environment/2012-06/05/c_123236834.htm", "city": null, "title": "\u6211\u56fd\u5c06\u5728\u91cd\u70b9\u6c34\u6e90\u533a\u7b49\u5730 \u5b9e\u65bd\u9000\u8015\u8fd8\u67971600\u4e07\u4ea9"},
{"date": "2012-06-04", "province": "\u4e0a\u6d77", "link": "http://news.xinhuanet.com/environment/2012-06/04/c_123230431.htm", "city": null, "title": "\u4e0a\u6d77\u53d1\u5e03\u73af\u4fdd\u548c\u751f\u6001\u5efa\u8bbe\u89c4\u5212"},
{"date": "2012-06-01", "province": null, "link": "http://news.xinhuanet.com/environment/2012-06/01/c_123225041.htm", "city": null, "title": "\u7eb8\u676f\u65b0\u56fd\u68076\u6708\u8d77\u5b9e\u65bd \u5728\u552e\u7eb8\u676f\u5927\u90fd\u4e0d\u8fbe\u6807"},
{"date": "2012-06-01", "province": null, "link": "http://news.xinhuanet.com/environment/2012-06/01/c_123225028.htm", "city": null, "title": "\u7eb8\u676f\u4eca\u8d77\u6267\u884c\u65b0\u56fd\u6807 \u4e70\u4e4b\u524d\u8f7b\u8f7b\u634f\u4e00\u4e0b"},
{"date": "2012-06-01", "province": null, "link": "http://news.xinhuanet.com/environment/2012-06/01/c_123224638.htm", "city": null, "title": "\u7eb8\u676f\u201c\u4e0d\u670d\u201d\u65b0\u56fd\u6807"},
{"date": "2012-05-31", "province": "\u5317\u4eac", "link": "http://news.xinhuanet.com/environment/2012-05/31/c_123217699.htm", "city": null, "title": "\u5317\u4eac\u6cb3\u6e56\u6c34\u8d28\u62df\u5b9a\u671f\u516c\u5e03 \u91ce\u6cf3\u91ce\u6ed1\u6709\u671b\u6709\u9650\u89e3\u7981"},
{"date": "2012-05-31", "province": null, "link": "http://news.xinhuanet.com/environment/2012-05/31/c_123215912.htm", "city": null, "title": "\u73af\u4fdd\u4ea7\u4e1a\u653f\u7b56\u6e10\u6b21\u843d\u5730"},
{"date": "2012-05-31", "province": null, "link": "http://news.xinhuanet.com/environment/2012-05/31/c_123215866.htm", "city": null, "title": "\u6218\u7565\u65b0\u5174\u4ea7\u4e1a\u914d\u5957\u653f\u7b56\u6216\u5bc6\u96c6\u53d1\u5e03"},
{"date": "2012-05-30", "province": "\u5317\u4eac", "link": "http://news.xinhuanet.com/environment/2012-05/30/c_123213897.htm", "city": null, "title": "\u5317\u4eac\uff1a\u6e7f\u5730\u6361\u9e1f\u86cb\u6316\u690d\u7269 \u6700\u9ad8\u62df\u7f5a5000\u5143"},
{"date": "2012-05-29", "province": null, "link": "http://news.xinhuanet.com/environment/2012-05/29/c_123204635.htm", "city": null, "title": "\u5de5\u4fe1\u90e8\uff1a\u6b63\u5f00\u5c55\u7eff\u8272\u5316\u5de5\u56ed\u533a\u51c6\u5165\u7814\u7a76"},
{"date": "2012-05-28", "province": "\u5e7f\u897f", "link": "http://news.xinhuanet.com/environment/2012-05/28/c_123199819.htm", "city": "\u67f3\u5dde", "title": "\u67f3\u5dde\u63a8\u884c\u73af\u5883\u6c61\u67d3\u8d23\u4efb\u4fdd\u9669"},
{"date": "2012-05-23", "province": null, "link": "http://news.xinhuanet.com/environment/2012-05/23/c_123176771.htm", "city": null, "title": "\u73af\u4fdd\u90e8\u4e25\u683c\u5316\u5de5\u56ed\u533a\u73af\u5883\u51c6\u5165"},
{"date": "2012-05-23", "province": "\u5317\u4eac", "link": "http://news.xinhuanet.com/environment/2012-05/23/c_123176628.htm", "city": null, "title": "\u5317\u4eac\uff1a\u6c61\u67d3\u51cf\u6392\u7eb3\u5165\u533a\u53bf\u7ee9\u6548\u8003\u8bc4"},
{"date": "2012-05-22", "province": null, "link": "http://news.xinhuanet.com/environment/2012-05/22/c_123170999.htm", "city": null, "title": "\u6c61\u67d3\u51cf\u6392\u5c06\u7eb3\u5165\u533a\u53bf\u7ee9\u6548\u8003\u6838 \u7763\u67e5PM2.5\u6cbb\u7406\u518d\u589e\u529b\u5ea6"},
{"date": "2012-05-14", "province": null, "link": "http://news.xinhuanet.com/environment/2012-05/14/c_123123115.htm", "city": null, "title": "\u201c\u7834\u70c2\u738b\u201d\u5c06\u83b7\u8d22\u7a0e\u6276\u6301"},
{"date": "2012-05-02", "province": "\u5317\u4eac", "link": "http://news.xinhuanet.com/environment/2012-05/02/c_123066510.htm", "city": null, "title": "\u5317\u4eac\u5e02\u996d\u9986\u6cb9\u70df\u6392\u653e\u5c06\u8bd5\u70b9\u5728\u7ebf\u76d1\u63a7"},
{"date": "2012-05-01", "province": "\u5c71\u4e1c", "link": "http://news.xinhuanet.com/environment/2012-05/01/c_123062527.htm", "city": null, "title": "\u5c71\u4e1c\uff1a70\u591a\u4e07\u516c\u9877\u6e7f\u5730\u7eb3\u5165\u4fdd\u62a4\u8303\u56f4"},
{"date": "2012-04-20", "province": null, "link": "http://news.xinhuanet.com/environment/2012-04/20/c_123010105.htm", "city": null, "title": "\u56fd\u5bb6\u6d77\u6d0b\u5c40\u516c\u5e03\u5b9e\u65bd\u300a\u5168\u56fd\u6d77\u5c9b\u4fdd\u62a4\u89c4\u5212\u300b"},
{"date": "2012-04-11", "province": null, "link": "http://news.xinhuanet.com/environment/2012-04/11/c_122960898.htm", "city": null, "title": "\u805a\u7126\u6c34\u5229\u666e\u67e5:30\u4e07\u4e2a\u6c34\u5229\u666e\u67e5\u5bf9\u8c61\u4e0a\u62a5\u56fd\u52a1\u9662"},
{"date": "2012-04-11", "province": "\u6e56\u5317", "link": "http://news.xinhuanet.com/environment/2012-04/11/c_122958815.htm", "city": "\u6b66\u6c49", "title": "\u6b66\u6c49\uff1a\u4e13\u9879\u4fdd\u62a464\u4e2a\u6c34\u6e90\u5730\u8ba9\u5e02\u6c11\u559d\u4e0a\u653e\u5fc3\u6c34"},
{"date": "2012-04-10", "province": null, "link": "http://news.xinhuanet.com/environment/2012-04/10/c_122954492.htm", "city": null, "title": "\u9996\u4efd\u4e2d\u56fd\u5c45\u6c11\u996e\u6c34\u6307\u5357\u53d1\u5e03 \u9ad8\u7aef\u6c34\u62a2\u6ee9\u9ec4\u91d1\u6c34\u6e90"},
{"date": "2012-04-07", "province": null, "link": "http://news.xinhuanet.com/environment/2012-04/07/c_122939981.htm", "city": null, "title": "\u592a\u6e56\u6cbb\u7406\u8fdb\u5165\u5173\u952e\u65f6\u671f \u7701\u90e8\u9645\u8054\u5e2d\u4f1a\u8bae\u786e\u5b9a\u91cd\u70b9\u5de5\u4f5c"},
{"date": "2012-04-06", "province": null, "link": "http://news.xinhuanet.com/environment/2012-04/06/c_122934714.htm", "city": null, "title": "\u56fd\u5185\u78b3\u4ea4\u6613\u529e\u6cd5\u6216\u4e0a\u534a\u5e74\u5b9e\u65bd \u5c06\u9650\u5236\u4ea4\u6613\u6240\u603b\u91cf"},
{"date": "2012-04-05", "province": null, "link": "http://news.xinhuanet.com/environment/2012-04/05/c_122928989.htm", "city": null, "title": "\u201c\u5341\u4e8c\u4e94\u201d\u5c06\u4fee\u8ba2\u56fd\u5bb6\u73af\u4fdd\u6807\u51c6600\u591a\u9879"},
{"date": "2012-04-05", "province": "\u6c5f\u897f", "link": "http://news.xinhuanet.com/environment/2012-04/05/c_122928943.htm", "city": null, "title": "\u6c5f\u897f\u51fa\u53f0\u9131\u9633\u6e56\u751f\u6001\u7ecf\u6d4e\u533a\u73af\u4fdd\u6761\u4f8b"},
{"date": "2012-04-05", "province": null, "link": "http://news.xinhuanet.com/environment/2012-04/05/c_122928892.htm", "city": null, "title": "\u6e5f\u6c34\u6d41\u57df\u571f\u5730\u6574\u6cbb\u5de5\u7a0b\u7eb3\u5165\u56fd\u5bb6\u89c4\u5212"},
{"date": "2012-03-29", "province": "\u5317\u4eac", "link": "http://news.xinhuanet.com/environment/2012-03/29/c_122904768.htm", "city": null, "title": "\u5317\u4eac\u62df\u5728\u5ba4\u5185\u516c\u5171\u7a7a\u95f4\u7981\u70df"},
{"date": "2012-03-26", "province": null, "link": "http://news.xinhuanet.com/environment/2012-03/26/c_122881856.htm", "city": null, "title": "\u673a\u52a8\u8f66\u5c3e\u6c14\u6c61\u67d3\u88ab\u5217\u4e3aPM2.5\u4e3b\u8981\u6765\u6e90"},
{"date": "2012-03-26", "province": "\u5317\u4eac", "link": "http://news.xinhuanet.com/environment/2012-03/26/c_122881958.htm", "city": null, "title": "\u5317\u4eac\u5e02\u7eff\u8272\u5efa\u7b51\u201c\u4ece\u5929\u5230\u5730\u201d\u7559\u96e8\u6c34"},
{"date": "2012-03-23", "province": "\u5317\u4eac", "link": "http://news.xinhuanet.com/environment/2012-03/23/c_122871284.htm", "city": null, "title": "\u5317\u4eac\u5e02\u5c06\u6838\u5b9a\u673a\u5173\u5355\u4f4d\u7528\u6c34\u6307\u6807"},
{"date": "2012-03-21", "province": null, "link": "http://news.xinhuanet.com/environment/2012-03/21/c_122863000.htm", "city": null, "title": "\u73af\u4fdd\u90e8\u901a\u8fc7\u5371\u9669\u5e9f\u7269\u6c61\u67d3\u9632\u6cbb\u89c4\u5212"},
{"date": "2012-03-21", "province": null, "link": "http://news.xinhuanet.com/environment/2012-03/21/c_122860703.htm", "city": null, "title": "\u9ad8\u5c42\u9891\u8868\u6001 \u73af\u4fdd\u7a0e\u6e10\u884c\u6e10\u8fd1"},
{"date": "2012-03-20", "province": "\u5317\u4eac", "link": "http://news.xinhuanet.com/environment/2012-03/20/c_122857398.htm", "city": null, "title": "\u5317\u4eac\u5e02\u5236\u5b9a\uff12\uff10\uff11\uff12\u5e74\u81f3\uff12\uff10\uff12\uff10\u5e74\u5927\u6c14\u6c61\u67d3\u9632\u6cbb\u7efc\u5408\u63aa\u65bd"},
{"date": "2012-03-20", "province": null, "link": "http://news.xinhuanet.com/environment/2012-03/20/c_122856780.htm", "city": null, "title": "\u73af\u4fdd\u90e8\u6b63\u7814\u7a76\u5c06\u57ce\u5e02\u7a7a\u6c14\u8d28\u91cf\u5206\u7ea7\u7ba1\u7406"},
{"date": "2012-03-16", "province": null, "link": "http://news.xinhuanet.com/environment/2012-03/16/c_122841241.htm", "city": null, "title": "\u201c\u4eacV\u201d\u6392\u653e\u6807\u51c6\u6d6e\u51fa\u6c34\u9762"},
{"date": "2012-03-15", "province": null, "link": "http://news.xinhuanet.com/environment/2012-03/15/c_122836212.htm", "city": null, "title": "\u6d77\u6d0b\u73af\u5883\u4fdd\u62a4\u6cd5\u7b49\u4fee\u8ba2\u4eca\u5e74\u542f\u52a8 \u62df\u63d0\u9ad8\u4f01\u4e1a\u51c6\u5165\u95e8\u69db"},
{"date": "2012-03-08", "province": null, "link": "http://news.xinhuanet.com/environment/2012-03/08/c_122810045.htm", "city": null, "title": "2012\u5e743\u67081\u65e5\u8d77\u5b9e\u65bd\u7684\u73af\u4fdd\u6cd5\u89c4\u3001\u6807\u51c6"},
{"date": "2012-03-08", "province": null, "link": "http://news.xinhuanet.com/environment/2012-03/08/c_122808104.htm", "city": null, "title": "\u65b0\u534e\u793e\u6388\u6743\u53d1\u5e03\u300a\u6d77\u6d0b\u89c2\u6d4b\u9884\u62a5\u7ba1\u7406\u6761\u4f8b\u300b"},
{"date": "2012-03-08", "province": null, "link": "http://news.xinhuanet.com/environment/2012-03/08/c_122806019.htm", "city": null, "title": "\u65b0\u534e\u793e\u53d7\u6743\u53d1\u5e03\u300a\u6d77\u6d0b\u89c2\u6d4b\u9884\u62a5\u7ba1\u7406\u6761\u4f8b\u300b"},
{"date": "2012-03-06", "province": null, "link": "http://news.xinhuanet.com/environment/2012-03/06/c_122797172.htm", "city": null, "title": "\u56fd\u5bb6\u6d77\u6d0b\u5c40\u5415\u6ee8\uff1a\u6d77\u6d0b\u751f\u6001\u635f\u5bb3\u7d22\u8d54\u529e\u6cd5\u6b63\u8d77\u8349"},
{"date": "2012-03-01", "province": null, "link": "http://news.xinhuanet.com/environment/2012-03/01/c_122776518.htm", "city": null, "title": "\u73af\u4fdd\u6982\u5ff5\u80a1\u5229\u597d\u4e0d\u65ad \u73af\u4fdd\u516c\u53f8\u671b\u6210\u4e24\u4f1a\u524d\u70ed\u70b9"},
{"date": "2012-03-01", "province": null, "link": "http://news.xinhuanet.com/environment/2012-03/01/c_122776062.htm", "city": null, "title": "\u4e2d\u534e\u4eba\u6c11\u5171\u548c\u56fd\u6e05\u6d01\u751f\u4ea7\u4fc3\u8fdb\u6cd5"},
{"date": "2012-03-01", "province": null, "link": "http://news.xinhuanet.com/environment/2012-03/01/c_122775141.htm", "city": null, "title": "\u65b0\u534e\u793e\u53d7\u6743\u64ad\u53d1\u5173\u4e8e\u4fee\u6539\u6e05\u6d01\u751f\u4ea7\u4fc3\u8fdb\u6cd5\u7684\u51b3\u5b9a\u7b49"},
{"date": "2012-02-28", "province": null, "link": "http://news.xinhuanet.com/environment/2012-02/28/c_122766824.htm", "city": null, "title": "\u897f\u5357\u73af\u4fdd\u5168\u9762\u5408\u4f5c\u534f\u8bae\u7b7e\u7f72"},
{"date": "2012-02-16", "province": null, "link": "http://news.xinhuanet.com/environment/2012-02/16/c_122711604.htm", "city": null, "title": "\u6211\u56fd\u6293\u7d27\u843d\u5b9e\u6700\u4e25\u683c\u6c34\u8d44\u6e90\u7ba1\u7406\u3000\u63d0\u51fa\u201c\u4e09\u6761\u7ea2\u7ebf\u201d\u786c\u6307\u6807"},
{"date": "2012-02-16", "province": null, "link": "http://news.xinhuanet.com/environment/2012-02/16/c_122710727.htm", "city": null, "title": "\u56fd\u52a1\u9662\u5173\u4e8e\u5b9e\u884c\u6700\u4e25\u683c\u6c34\u8d44\u6e90\u7ba1\u7406\u5236\u5ea6\u7684\u610f\u89c1"},
{"date": "2012-02-07", "province": null, "link": "http://news.xinhuanet.com/environment/2012-02/07/c_122664159.htm", "city": null, "title": "\u6211\u56fd\u6c34\u57df\u5c06\u6309\u529f\u80fd\u5b9a\u4f4d\u5206\u7c7b\u4fdd\u62a4"},
{"date": "2012-01-10", "province": "\u65b0\u7586", "link": "http://news.xinhuanet.com/environment/2012-01/10/c_122566073.htm", "city": null, "title": "\u65b0\u7586\u51fa\u53f0\u65b0\u7248\u300a\u73af\u5883\u4fdd\u62a4\u6761\u4f8b\u300b\u3000\u6700\u9ad8\u7f5a\u6b3e50\u4e07\u5143"},
{"date": "2011-12-30", "province": null, "link": "http://news.xinhuanet.com/environment/2011-12/30/c_122506111.htm", "city": null, "title": "\u53d1\u6539\u59d4\uff1a\u5c06\u7814\u7a76\u5bf9\u90e8\u5206\u56fa\u4f53\u5e9f\u7269\u5f00\u5f81\u73af\u5883\u7a0e"},
{"date": "2011-12-21", "province": null, "link": "http://news.xinhuanet.com/environment/2011-12/21/c_122458576.htm", "city": null, "title": "\u73af\u4fdd\u201c\u5341\u4e8c\u4e94\u201d\u89c4\u5212\u652f\u6301\u7b26\u5408\u6761\u4ef6\u73af\u4fdd\u4f01\u4e1a\u6539\u5236\u4e0a\u5e02"},
{"date": "2011-11-01", "province": null, "link": "http://news.xinhuanet.com/environment/2011-11/01/c_122222826.htm", "city": null, "title": "2011\u5e7411\u67081\u65e5\u8d77\u5b9e\u65bd\u7684\u73af\u4fdd\u6cd5\u89c4\u3001\u6807\u51c6"},
{"date": "2011-10-21", "province": null, "link": "http://news.xinhuanet.com/environment/2011-10/21/c_122183306.htm", "city": null, "title": "\u56fd\u52a1\u9662\u5173\u4e8e\u52a0\u5f3a\u73af\u5883\u4fdd\u62a4\u91cd\u70b9\u5de5\u4f5c\u7684\u610f\u89c1(\u5168\u6587)"},
{"date": "2011-10-21", "province": null, "link": "http://news.xinhuanet.com/environment/2011-10/21/c_122183001.htm", "city": null, "title": "\u56fd\u52a1\u9662\uff1a\u63a8\u8fdb\u73af\u5883\u7a0e\u8d39\u6539\u9769 \u7814\u7a76\u5f00\u5f81\u73af\u4fdd\u7a0e"},
{"date": "2011-10-21", "province": null, "link": "http://news.xinhuanet.com/environment/2011-10/21/c_122182432.htm", "city": null, "title": "\u56fd\u52a1\u9662\u51fa\u53f0\u5de5\u4f5c\u610f\u89c1 \u73af\u4fdd\u4ea7\u4e1a\u9762\u4e34\u7cfb\u5217\u5229\u597d"},
{"date": "2011-10-21", "province": null, "link": "http://news.xinhuanet.com/environment/2011-10/21/c_122182377.htm", "city": null, "title": "\u56fd\u52a1\u9662\uff1a\u7814\u7a76\u5f00\u5f81\u73af\u5883\u4fdd\u62a4\u7a0e"},
{"date": "2011-10-11", "province": "\u5b81\u590f", "link": "http://news.xinhuanet.com/environment/2011-10/11/c_122143721.htm", "city": null, "title": "\u5b81\u590f\u7acb\u6cd5\uff1a\u5e72\u65f1\u7f3a\u6c34\u5730\u533a\u5e94\u9650\u5236\u8017\u6c34\u91cf\u5927\u7684\u5de5\u7a0b\u9879\u76ee"},
{"date": "2011-08-01", "province": "\u6e56\u5317", "link": "http://news.xinhuanet.com/environment/2011-08/01/c_121754538.htm", "city": "\u6b66\u6c49", "title": "\u6b66\u6c49\u4eca\u8d77\u5b9e\u65bd\u300a\u6c34\u8d44\u6e90\u4fdd\u62a4\u6761\u4f8b\u300b\u3000\u7981\u6b62\u65b0\u5efa\u6c34\u57df\u9910\u5385"},
{"date": "2011-07-28", "province": null, "link": "http://news.xinhuanet.com/environment/2011-07/28/c_121734402.htm", "city": null, "title": "\u4e2d\u592e\u8d22\u653f\u8bbe\u7acb\u56fd\u5bb6\u91cd\u70b9\u751f\u6001\u529f\u80fd\u533a\u8f6c\u79fb\u652f\u4ed8"},
{"date": "2010-11-23", "province": null, "link": "http://news.xinhuanet.com/environment/2010-11/23/c_12807245.htm", "city": null, "title": "\u201c\u5341\u4e8c\u4e94\u201d\u9884\u5c06\u5f00\u5f81\u73af\u4fdd\u7a0e"},
{"date": "2010-11-23", "province": null, "link": "http://news.xinhuanet.com/environment/2010-11/23/c_12807043.htm", "city": null, "title": "\u73af\u4fdd\u7a0e\u6b63\u5728\u79ef\u6781\u7814\u7a76 \u201c\u5341\u4e8c\u4e94\u201d\u671f\u95f4\u6216\u5f00\u5f81"},
{"date": "2010-11-23", "province": null, "link": "http://news.xinhuanet.com/environment/2010-11/23/c_12805648.htm", "city": null, "title": "\u53d1\u6539\u59d4\u53d1\u5e03\u4eca\u5e74\u4e2d\u56fd\u5e94\u5bf9\u6c14\u5019\u53d8\u5316\u7684\u653f\u7b56\u4e0e\u884c\u52a8\u5e74\u5ea6\u62a5\u544a"},
{"date": "2010-11-23", "province": null, "link": "http://news.xinhuanet.com/environment/2010-11/23/c_12804209.htm", "city": null, "title": "\u8282\u80fd\u73af\u4fdd\u4ea7\u4e1a\u89c4\u5212\u91cd\u70b9\u6276\u6301\u516d\u5927\u9886\u57df"},
{"date": "2010-09-01", "province": "\u5e7f\u4e1c", "link": "http://news.xinhuanet.com/environment/2010-09/01/c_12503403.htm", "city": null, "title": "\u5e7f\u4e1c\u7acb\u6cd5\u89c4\u5b9a\u68ee\u6797\u516c\u56ed\u4e2d\u5efa\u8bbe\u7528\u5730\u4e0d\u5f97\u8d85\u8fc73\uff05"},
{"date": "2010-08-19", "province": null, "link": "http://news.xinhuanet.com/environment/2010-08/19/c_12462568.htm", "city": null, "title": "\u5e74\u5185\u6216\u6709\u4e00\u7cfb\u5217\u8282\u80fd\u51cf\u6392\u653f\u7b56\u51fa\u53f0"},
{"date": "2010-08-02", "province": null, "link": "http://news.xinhuanet.com/environment/2010-08/02/c_12398737.htm", "city": null, "title": "\u73af\u5883\u7a0e\u8bd5\u70b9\u65b9\u6848\u5df2\u4e0a\u62a5\u56fd\u52a1\u9662 \u51fa\u53f0\u6682\u65e0\u65f6\u95f4\u8868"},
{"date": "2010-07-16", "province": null, "link": "http://news.xinhuanet.com/environment/2010-07/16/c_12338184.htm", "city": null, "title": "\u73af\u4fdd\u90e8\u526f\u90e8\u957f\uff1a\u73af\u5883\u7a0e\u8bd5\u70b9\u65b9\u6848\u6b63\u5728\u5236\u8ba2"},
{"date": "2010-07-01", "province": "\u5317\u4eac", "link": "http://news.xinhuanet.com/environment/2010-07/01/c_12284013.htm", "city": null, "title": "\u5317\u4eac\u5ba4\u5185\u516c\u5171\u573a\u6240\u6216\u5168\u9762\u7981\u70df \u6db5\u76d6\u697c\u9053\u3001\u536b\u751f\u95f4"},
{"date": "2010-06-22", "province": null, "link": "http://news.xinhuanet.com/environment/2010-06/22/c_12247809.htm", "city": null, "title": "\u7535\u5b50\u884c\u4e1a\u5c06\u65b0\u589e22\u9879\u56fd\u5bb6\u6807\u51c6 \u4e3b\u6253\u8282\u80fd\u73af\u4fdd"},
{"date": "2010-06-17", "province": null, "link": "http://news.xinhuanet.com/environment/2010-06/17/c_12228982.htm", "city": null, "title": "\u300a\u73af\u5883\u4fdd\u62a4\u6cd5\u300b\u53bb\u7559\u4e4b\u4e89\uff1a\u662f\u5e9f\u6b62\u8fd8\u662f\u5347\u683c\uff1f"},
{"date": "2010-06-17", "province": null, "link": "http://news.xinhuanet.com/environment/2010-06/17/c_12227285.htm", "city": null, "title": "\u4ee5\u5f00\u95e8\u7acb\u6cd5\u5316\u89e3\u300a\u73af\u4fdd\u6cd5\u300b\u7684\u5c34\u5c2c"},
{"date": "2010-06-13", "province": null, "link": "http://news.xinhuanet.com/environment/2010-06/13/c_12216938.htm", "city": null, "title": "\u4e2d\u56fd\u7b2c\u4e00\u90e8\u57ce\u5e02\u996e\u7528\u6c34\u6c34\u6e90\u5730\u73af\u5883\u4fdd\u62a4\u89c4\u5212\u51fa\u53f0"},
{"date": "2010-06-07", "province": "\u5e7f\u4e1c", "link": "http://news.xinhuanet.com/environment/2010-06/07/c_12190661.htm", "city": null, "title": "\u5e7f\u4e1c\u7acb\u6cd5\u5141\u8bb8\u5404\u5730\u9650\u884c\u201c\u9ec4\u6807\u8f66\u201d"},
{"date": "2010-06-07", "province": null, "link": "http://news.xinhuanet.com/environment/2010-06/07/c_12190687.htm", "city": null, "title": "\u6211\u56fd\u52a0\u5927\u5904\u7406\u7535\u5b50\u5783\u573e\u529b\u5ea6"},
{"date": "2010-06-04", "province": null, "link": "http://news.xinhuanet.com/environment/2010-06/04/c_12180442.htm", "city": null, "title": "\u73af\u4fdd\u90e8\uff1a\u5783\u573e\u5904\u7406\u653f\u7b56\u8fd1\u671f\u51fa\u53f0"},
{"date": "2010-06-03", "province": "\u5c71\u897f", "link": "http://news.xinhuanet.com/environment/2010-06/03/c_12177368.htm", "city": null, "title": "\u5c71\u897f\u7701\u4ece\u5373\u65e5\u8d77\u5b9e\u884c\u73af\u5883\u76d1\u5bdf\u901a\u77e5\u4e66\u5236\u5ea6"},
{"date": "2010-06-02", "province": "\u5e7f\u4e1c", "link": "http://news.xinhuanet.com/environment/2010-06/02/c_12171776.htm", "city": null, "title": "\u5e7f\u4e1c\u62df\u7acb\u6cd5\u201c\u4ece\u4e25\u8981\u6c42\u201d\u73e0\u4e09\u89d2\u6c7d\u8f66\u5c3e\u6c14\u6392\u653e"},
{"date": "2010-05-31", "province": null, "link": "http://news.xinhuanet.com/environment/2010-05/31/c_12161633.htm", "city": null, "title": "\u6211\u56fd\u5c06\u5efa\u7acb\u56fd\u5bb6\u7edf\u4e00\u63a8\u884c\u7684\u7535\u5b50\u4fe1\u606f\u4ea7\u54c1\u6c61\u67d3\u63a7\u5236\u81ea\u613f\u6027\u8ba4\u8bc1\u5236\u5ea6"},
{"date": "2010-05-25", "province": "\u5185\u8499\u53e4", "link": "http://news.xinhuanet.com/environment/2010-05/25/c_12139756.htm", "city": null, "title": "\u5185\u8499\u53e4\u9102\u6258\u514b\u524d\u65d7\u751f\u6001\u65b0\u653f\uff1a\u8865\u201c\u52a3\u201d\u53d8\u5956\u201c\u4f18\u201d"},
{"date": "2010-05-18", "province": "\u5317\u4eac", "link": "http://news.xinhuanet.com/environment/2010-05/18/c_12114722.htm", "city": null, "title": "\u5317\u4eac\uff1a7\u6708\u8d77\u672a\u5206\u7c7b\u6df7\u5408\u5783\u573e\u5904\u7406\u8d39\u6bcf\u5428\u6da850\u5143"},
{"date": "2010-05-18", "province": null, "link": "http://news.xinhuanet.com/environment/2010-05/18/c_12114589.htm", "city": null, "title": "\u4eac7\u6708\u8d77\u5783\u573e\u672a\u5206\u7c7b\u5904\u7406\u8d39\u6bcf\u5428\u6da850\u5143 \u533a\u53bf\u653f\u5e9c\u4e70\u5355"},
{"date": "2010-05-15", "province": null, "link": "http://news.xinhuanet.com/environment/2010-05/15/c_12104881.htm", "city": null, "title": "\u751f\u6001\u8865\u507f\u6761\u4f8b\u6846\u67b6\u521d\u5b9a \u5c06\u6210\u5168\u7403\u9996\u4e2a\u4e13\u95e8\u6cd5\u89c4"},
{"date": "2010-05-12", "province": null, "link": "http://news.xinhuanet.com/environment/2010-05/12/c_1293274.htm", "city": null, "title": "\u7981\u70df\u4ee4\u63ed\u51fa\u62bd\u70df\u201c\u6f5c\u89c4\u5219\u201d \u767d\u9886\u8d28\u7591\u9886\u5bfc\u70df\u96be\u7981"},
{"date": "2010-05-11", "province": "\u9752\u6d77", "link": "http://news.xinhuanet.com/environment/2010-05/11/c_1288621.htm", "city": null, "title": "\u9752\u6d77\u542f\u52a8\u5e94\u6025\u8054\u52a8\u673a\u5236\u5904\u7406\u73af\u5883\u7a81\u53d1\u4e8b\u4ef6"},
{"date": "2010-05-02", "province": null, "link": "http://news.xinhuanet.com/environment/2010-05/02/c_1269081.htm", "city": null, "title": "\u300a\u751f\u6001\u8865\u507f\u6761\u4f8b\u300b\u8d77\u8349\u5de5\u4f5c\u542f\u52a8 \u62df\u89c4\u5b9a\u8c01\u5f00\u53d1\u8c01\u4fdd\u62a4"},
{"date": "2010-04-30", "province": "\u8fbd\u5b81", "link": "http://news.xinhuanet.com/environment/2010-04/30/c_1266092.htm", "city": null, "title": "\u8fbd\u5b81\u6210\u7acb\u7701\u7ea7\u5371\u9669\u5e9f\u7269\u73af\u5883\u6c61\u67d3\u5904\u7f6e\u4e13\u4e1a\u673a\u6784"},
{"date": "2010-04-29", "province": "\u5e7f\u4e1c", "link": "http://news.xinhuanet.com/environment/2010-04/29/c_1263865.htm", "city": "\u5e7f\u5dde", "title": "\u5e7f\u5dde\u7acb\u6cd5\u7981\u6b62\u529e\u516c\u5ba4\u5438\u70df"},
{"date": "2010-04-28", "province": "\u56db\u5ddd", "link": "http://news.xinhuanet.com/environment/2010-04/28/c_1261594.htm", "city": "\u6210\u90fd", "title": "\u6210\u90fd\u6cbb\u7406\u6c7d\u8f66\u5c3e\u6c14\u6c61\u67d3 \u62df\u9650\u5236\u9ad8\u6c61\u67d3\u8f66\u5165\u57ce"},
{"date": "2010-04-28", "province": "\u8d35\u5dde", "link": "http://news.xinhuanet.com/environment/2010-04/28/c_1261508.htm", "city": null, "title": "\u8d35\u5dde\u5c06\u5bf9\u751f\u6d3b\u6c61\u6c34\u5904\u7406\u5382\u5b9e\u884c\u9a7b\u5382\u76d1\u7763\u5458\u5236\u5ea6"},
{"date": "2010-04-19", "province": null, "link": "http://news.xinhuanet.com/environment/2010-04/19/c_1242348.htm", "city": null, "title": "\u78b3\u6392\u653e\u8003\u6838\u4f53\u7cfb\u5c06\u5927\u9762\u79ef\u63a8\u5e7f"},
{"date": "2010-04-16", "province": null, "link": "http://news.xinhuanet.com/environment/2010-04/16/c_1238611.htm", "city": null, "title": "\u56fd\u52a1\u9662\u516c\u5e03\u300a\u6d88\u8017\u81ed\u6c27\u5c42\u7269\u8d28\u7ba1\u7406\u6761\u4f8b\u300b"}]
